jbiadmin03003 : Test fix for CR 6532519 - not able to start system components in standalone instance
Starting domain ESBTest
Creating cluster esbcluster1
Starting sun-http-binding on target esbcluster1
Started component sun-http-binding.
Stopping domain ESBTest
