jbiadmin00139 : Test fix for Issue 29 - Deploying a service assembly with missing target components should fail with a proper response.
[i18n-echo] Deploying a service assembly
IGNORE [i18n-echo]   jmx connection info: (host=localhost, port=8699, secure=false, username=admin, target=server )
IGNORE [i18n-echo]   file=D:/nikita/dev/jsr208/jnet/open-esb/runtime/esb-manage/bld/test-classes/testdata/SoapRpcInOnly.zip
[jbi-deploy-service-assembly] Service assembly deployment failed. [
[jbi-deploy-service-assembly]   ERROR:(JBIMA1407)Required component sun-javaee-engine is not installed on target server.
[jbi-deploy-service-assembly] ]

BUILD SUCCESSFUL
IGNORE Total time: 2 seconds
IGNORE JBI framework has been unloaded.
IGNORE Unloading JBI framework in response to VM termination.
IGNORE JBI framework shutdown complete.
