testname is jbiadmin02001
IGNORE JBI_HOME is /d/gf/jbi
IGNORE JBI_DOMAIN_ROOT is /d/gf/domains/CAS
IGNORE jbi_instance_name is server
IGNORE jmx.provider is service:jmx:rmi:///jndi/rmi://lifebook-98440:8789/management/rmi-jmx-connector

BUILD SUCCESSFUL
IGNORE Total time: 2 seconds
Command create-cluster executed successfully.
Command create-instance executed successfully.
IGNORE Using 38,081 for HTTP_LISTENER_PORT.
IGNORE Using 38,182 for HTTP_SSL_LISTENER_PORT.
IGNORE Using 33,821 for IIOP_SSL_LISTENER_PORT.
IGNORE Using 37,677 for JMS_PROVIDER_PORT.
IGNORE Using 33,701 for IIOP_LISTENER_PORT.
IGNORE Using 38,687 for JMX_SYSTEM_CONNECTOR_PORT.
IGNORE Using 33,921 for IIOP_SSL_MUTUALAUTH_PORT.
Command create-instance executed successfully.
Command start-instance executed successfully.
Installing a component
IGNORE   jmx connection info: (host=localhost, port=4951, secure=false, username=admin, target=sccfg-cluster )
IGNORE   file=/d/open-esb/runtime/esb-manage/bld/test-classes/dist/component-with-custom-mbean.jar
Install component succeeded. [
manage-binding-1
]

BUILD SUCCESSFUL
IGNORE Total time: 1 second
Starting a component
IGNORE   jmx connection info: (host=localhost, port=4951, secure=false, username=admin, target=sccfg-cluster )
  name=manage-binding-1
Start component succeeded. [
manage-binding-1
]

BUILD SUCCESSFUL
IGNORE Total time: 1 second
Starting a component
IGNORE   jmx connection info: (host=localhost, port=4951, secure=false, username=admin, target=sccfg-cluster )
  name=sun-http-binding
Start component succeeded. [
sun-http-binding
]

BUILD SUCCESSFUL
IGNORE Total time: 1 second
Command create-jbi-application-configuration executed successfully.
Command create-jbi-application-variable executed successfully.
Command stop-instance executed successfully.
Command start-instance executed successfully.
---------------registry diff
23,65d22
<                 <component-config>
<                     <application-variable>
<                         <name>securityCredentials</name>
IGNORE <                         <value>BHY7rg7xpMv0qWP+uSWTaQ==</value>
<                         <type>PASSWORD</type>
<                     </application-variable>
<                     <application-variable>
<                         <name>securityPrincipal</name>
<                         <value>john</value>
<                         <type>STRING</type>
<                     </application-variable>
<                     <application-variable>
<                         <name>port</name>
<                         <value>1234</value>
<                         <type>NUMBER</type>
<                     </application-variable>
<                     <application-configuration name="i1Config">
<                         <property>
<                             <name>jndienv.0</name>
<                             <value>com.sonicsw.jndi.mfcontext.domain=Domain1</value>
<                         </property>
<                         <property>
<                             <name>securityCredential</name>
IGNORE <                             <value>BHY7rg7xpMv0qWP+uSWTaQ==</value>
<                         </property>
<                         <property>
<                             <name>securityPrincipal</name>
<                             <value>Administrator</value>
<                         </property>
<                         <property>
<                             <name>connectionURL</name>
<                             <value>jndi://</value>
<                         </property>
<                         <property>
<                             <name>jndienv.1</name>
<                             <value>com.sonicsw.jndi.mfcontext.idleTimeout=60000 </value>
<                         </property>
<                         <property>
<                             <name>configurationName</name>
<                             <value>i1Config</value>
<                         </property>
<                     </application-configuration>
<                 </component-config>
Command create-jbi-application-configuration executed successfully.
Command create-jbi-application-variable executed successfully.
Command stop-instance executed successfully.
Command start-instance executed successfully.
---------------registry diff
26c26
IGNORE <                         <value>/m5HvI7792StZ5lS8tA7Xm8Wv/H7Hmuq+7gHrjQcAjY=</value>
---
IGNORE >                         <value>4TtfDJc6P00XRNI7MrlrdQ==</value>
46c46
IGNORE <                             <value>9YB6rTpqcfv9JLpB/jaux7VoWv6EBX+URmkFWCDaD5dOHDOJbT0t7upBVsGu/E3Z</value>
---
IGNORE >                             <value>LyDwU52p7oHvHliNam4YYssvWHin05TxUCW9E1zfOes=</value>
  ERROR:(JBIMA1837)Not all instances in the cluster sccfg-cluster are up, please start the instances which are not running and retry the operation.
  ERROR: Application Variable: securityCredentials
    (JBIMA1837)Not all instances in the cluster sccfg-cluster are up, please start the instances which are not running and retry the operation.
    Application Variable: securityPrincipal
    (JBIMA1837)Not all instances in the cluster sccfg-cluster are up, please start the instances which are not running and retry the operation.
    Application Variable: port
    (JBIMA1837)Not all instances in the cluster sccfg-cluster are up, please start the instances which are not running and retry the operation.
Command start-instance executed successfully.
Command delete-jbi-application-configuration executed successfully.
Command delete-jbi-application-variable executed successfully.
---------------registry diff
Command stop-instance executed successfully.
Creating application configuration
IGNORE   jmx connection info: (host=localhost, port=4951, secure=false, username=admin, target=sccfg-cluster )
Add application configuration succeeded.

BUILD SUCCESSFUL
IGNORE Total time: 1 second
Creating application variables
IGNORE   jmx connection info: (host=localhost, port=4951, secure=false, username=admin, target=sccfg-cluster )
Add application variable succeeded.

BUILD SUCCESSFUL
IGNORE Total time: 1 second
Setting component configuration
IGNORE   jmx connection info: (host=localhost, port=4951, secure=false, username=admin, target=sccfg-cluster )
Set configuration succeeded. [
Instance: sccfg-cluster-i1
  INFO:(JBIMA1804)Successfully set attributes [ HttpDefaultPort, OutboundThreads, HttpsDefaultPort ] on component sun-http-binding.
Instance: sccfg-cluster-i2
  INFO:(JBIMA1805)Failed to configure component sun-http-binding, since the instance sccfg-cluster-i2 is down.
]

BUILD SUCCESSFUL
IGNORE Total time: 1 second
Command stop-instance executed successfully.
Command start-instance executed successfully.
---------------registry diff
40c40
IGNORE <                         <value>BHY7rg7xpMv0qWP+uSWTaQ==</value>
---
IGNORE >                         <value>c8KywPc6+T1EMwLFAa+649mYhgHq65wv7O2x43Ls4hw=</value>
60c60
IGNORE <                             <value>BHY7rg7xpMv0qWP+uSWTaQ==</value>
---
IGNORE >                             <value>c8KywPc6+T1EMwLFAa+649mYhgHq65wv7O2x43Ls4hw=</value>
Updating application configuration
IGNORE   jmx connection info: (host=localhost, port=4951, secure=false, username=admin, target=sccfg-cluster )
Set application configuration succeeded.

BUILD SUCCESSFUL
IGNORE Total time: 1 second
Updating application variables
IGNORE   jmx connection info: (host=localhost, port=4951, secure=false, username=admin, target=sccfg-cluster )
Set application variable succeeded.

BUILD SUCCESSFUL
IGNORE Total time: 1 second
Setting component configuration
IGNORE   jmx connection info: (host=localhost, port=4951, secure=false, username=admin, target=sccfg-cluster )
Set configuration succeeded. [
Instance: sccfg-cluster-i1
  INFO:(JBIMA1805)Failed to configure component sun-http-binding, since the instance sccfg-cluster-i1 is down.
Instance: sccfg-cluster-i2
  INFO:(JBIMA1804)Successfully set attributes [ HttpDefaultPort, OutboundThreads, HttpsDefaultPort ] on component sun-http-binding.
]

BUILD SUCCESSFUL
IGNORE Total time: 1 second
Command start-instance executed successfully.
---------------registry diff
40c40
IGNORE <                         <value>/m5HvI7792StZ5lS8tA7Xm8Wv/H7Hmuq+7gHrjQcAjY=</value>
---
IGNORE >                         <value>4TtfDJc6P00XRNI7MrlrdQ==</value>
60c60
IGNORE <                             <value>9YB6rTpqcfv9JLpB/jaux7VoWv6EBX+URmkFWCDaD5dOHDOJbT0t7upBVsGu/E3Z</value>
---
IGNORE >                             <value>LyDwU52p7oHvHliNam4YYssvWHin05TxUCW9E1zfOes=</value>
67,70d66
<                             <name>jndienv.2</name>
<                             <value>newVarAddedBySet</value>
<                         </property>
<                         <property>
80a77,80
>                         </property>
>                         <property>
>                             <name>jndienv.2</name>
>                             <value>newVarAddedBySet</value>
Deleting application configuration
IGNORE   jmx connection info: (host=localhost, port=4951, secure=false, username=admin, target=sccfg-cluster )
Delete application configuration succeeded.

BUILD SUCCESSFUL
IGNORE Total time: 1 second
Command stop-instance executed successfully.
Command stop-instance executed successfully.
---------------registry diff
40c40
IGNORE <                         <value>/m5HvI7792StZ5lS8tA7Xm8Wv/H7Hmuq+7gHrjQcAjY=</value>
---
IGNORE >                         <value>4TtfDJc6P00XRNI7MrlrdQ==</value>
Stopping a component
IGNORE   jmx connection info: (host=localhost, port=4951, secure=false, username=admin, target=sccfg-cluster )
  name=manage-binding-1
Stop component succeeded. [
manage-binding-1
]

BUILD SUCCESSFUL
IGNORE Total time: 0 seconds
Shutting down a component
IGNORE   jmx connection info: (host=localhost, port=4951, secure=false, username=admin, target=sccfg-cluster )
  name=manage-binding-1
Shutdown component succeeded. [
manage-binding-1
]

BUILD SUCCESSFUL
IGNORE Total time: 1 second
Uninstalling a component
IGNORE   jmx connection info: (host=localhost, port=4951, secure=false, username=admin, target=sccfg-cluster )
  name=manage-binding-1
Uninstall component succeeded. [
manage-binding-1
]

BUILD SUCCESSFUL
IGNORE Total time: 0 seconds
Stopping a component
IGNORE   jmx connection info: (host=localhost, port=4951, secure=false, username=admin, target=sccfg-cluster )
  name=sun-http-binding
Stop component succeeded. [
sun-http-binding
]

BUILD SUCCESSFUL
IGNORE Total time: 0 seconds
Shutting down a component
IGNORE   jmx connection info: (host=localhost, port=4951, secure=false, username=admin, target=sccfg-cluster )
  name=sun-http-binding
Shutdown component succeeded. [
sun-http-binding
]

BUILD SUCCESSFUL
IGNORE Total time: 1 second
Command delete-instance executed successfully.
Command delete-instance executed successfully.
Command delete-cluster executed successfully.
