jbiadmin01402 - Test Runtime Configuration MBeans
IGNORE JBI_HOME is D:/nikita/dev/jsr208/jnet/open-esb/install/as8/jbi
IGNORE JBI_DOMAIN_ROOT is D:/nikita/dev/jsr208/jnet/open-esb/install/as8/domains/CAS
IGNORE jbi_instance_name is server
IGNORE jmx.provider is service:jmx:rmi:///jndi/rmi://Mystique01:10789/management/rmi-jmx-connector
Attribute Information for MBean com.sun.jbi:Target=server,ServiceName=ConfigurationService,ServiceType=System

Name : jbiHome
Description : Home directory for JBI installation.
IGNORE    default = D:/nikita/dev/jsr208/jnet/open-esb/install/as8/jbi
    descriptionId = JBIMA2301
    descriptorType = attribute
    displayName = JBI Home Directory
    displayNameId = JBIMA2300
    isPassword = false
    isStatic = true
    name = jbiHome
    resourceBundleName = com.sun.jbi.management
    toolTip = Home directory for JBI installation.
    tootTipId = JBIMA2301

Name : heartBeatInterval
Description : The heart beat interval for the JBI runtime.
    default = 5500
    descriptionId = JBIMA2307
    descriptorType = attribute
    displayName = JBI Heartbeat Interval
    displayNameId = JBIMA2306
    isPassword = false
    isStatic = false
    maxValue = 2147483647
    minValue = 1000
    name = heartBeatInterval
    resourceBundleName = com.sun.jbi.management
    toolTip = The polling interval of the auto-administration tasks ( auto-install, auto-deploy ) is based on this interval.
    tootTipId = JBIMA2308
    unit = milliseconds

Name : msgSvcTimingStatisticsEnabled
Description : Enable Message Service Timing Statistics.
    default = false
    descriptionId = JBIMA2310
    descriptorType = attribute
    displayName = Message Service Timing Statistics Enabled
    displayNameId = JBIMA2309
    isPassword = false
    isStatic = false
    name = msgSvcTimingStatisticsEnabled
    resourceBundleName = com.sun.jbi.management
    toolTip = When this property is set to "true" the timing statistics for the messaging service will be collected by the JBI runtime.
    tootTipId = JBIMA2311
Attribute Information for MBean com.sun.jbi:Target=server,ServiceName=ConfigurationService,ServiceType=Deployment

Name : serviceUnitTimeout
Description : Time out interval for service unit life cycle operations.
    default = 0
    descriptionId = JBIMA2201
    descriptorType = attribute
    displayName = Service Unit Timeout
    displayNameId = JBIMA2200
    isPassword = false
    isStatic = false
    maxValue = 2147483647
    minValue = 0
    name = serviceUnitTimeout
    resourceBundleName = com.sun.jbi.management
    toolTip = If the time taken by a service unit life cycle operation is longer than this time interval, the operation times out.
    tootTipId = JBIMA2202
    unit = milliseconds

Name : deploymentTimeout
Description : Time out interval for service unit deployment operation.
    default = 0
    descriptionId = JBIMA2204
    descriptorType = attribute
    displayName = Deployment  Timeout
    displayNameId = JBIMA2203
    isPassword = false
    isStatic = false
    maxValue = 2147483647
    minValue = 0
    name = deploymentTimeout
    resourceBundleName = com.sun.jbi.management
    toolTip = If the time taken by a service unit deployment operation is longer than this time interval, the operation times out.
    tootTipId = JBIMA2205
    unit = milliseconds

Name : autoDeployEnabled
Description : Enable the auto-deploy feature.
    default = false
    descriptionId = JBIMA2207
    descriptorType = attribute
    displayName = Auto Deploy Enabled
    displayNameId = JBIMA2206
    isPassword = false
    isStatic = false
    name = autoDeployEnabled
    resourceBundleName = com.sun.jbi.management
    toolTip = If set to false, auto-deploy is disabled.
    tootTipId = JBIMA2208

Name : autoUndeployEnabled
Description : Enable the auto-undeploy feature.
    default = false
    descriptionId = JBIMA2216
    descriptorType = attribute
    displayName = Auto Undeploy Enabled
    displayNameId = JBIMA2215
    isPassword = false
    isStatic = false
    name = autoUndeployEnabled
    resourceBundleName = com.sun.jbi.management
    toolTip = When this property is set to "true" (together with the "Auto Deploy Enabled" property), then the system will automatically undeploy service assemblies when their archive file is removed from the autodeploy directory.
    tootTipId = JBIMA2217

Name : autoRedeployEnabled
Description : Enable the auto-redeploy feature.
    default = false
    descriptionId = JBIMA2219
    descriptorType = attribute
    displayName = Auto Redeploy Enabled
    displayNameId = JBIMA2218
    isPassword = false
    isStatic = false
    name = autoRedeployEnabled
    resourceBundleName = com.sun.jbi.management
    toolTip = When this property is set to "true" (together with the "Auto Deploy Enabled" and "Auto Undeploy Enabled" properties), then the system will automatically redeploy (undeploy of the old version, followed by autodeploy of the new version) service assemblies when their archive file is updated in the autodeploy directory.
    tootTipId = JBIMA2220

Name : autoDeployDir
Description : This is the directory for deploying service assemblies automatically. 
IGNORE    default = D:/nikita/dev/jsr208/jnet/open-esb/install/as8/domains/CAS\autodeploy
    descriptionId = JBIMA2210
    descriptorType = attribute
    displayName = Auto Deployment Directory
    displayNameId = JBIMA2209
    isPassword = false
    isStatic = true
    name = autoDeployDir
    resourceBundleName = com.sun.jbi.management
    toolTip = To deploy a service assembly automatically, just drop the deployment zip file in this directory.
    tootTipId = JBIMA2211

Name : startOnDeploy
Description : Start a component targeted by a service unit before deploying the service unit.
    default = true
    descriptionId = JBIMA2213
    descriptorType = attribute
    displayName = Start On Deploy
    displayNameId = JBIMA2212
    isPassword = false
    isStatic = false
    name = startOnDeploy
    resourceBundleName = com.sun.jbi.management
    toolTip = If this is set to true, the target component of a service unit is started ( if it is in the stopped or shutdown state ) before deploying the service unit to it.
    tootTipId = JBIMA2214

Name : startOnVerify
Description : Start components when application verifier needs information.
    default = true
    descriptionId = JBIMA2222
    descriptorType = attribute
    displayName = Start On Verify
    displayNameId = JBIMA2221
    isPassword = false
    isStatic = false
    name = startOnVerify
    resourceBundleName = com.sun.jbi.management
    toolTip = If this is set to true, components are started by application verifier (and stopped after verification).
    tootTipId = JBIMA2223
Attribute Information for MBean com.sun.jbi:Target=server,ServiceName=ConfigurationService,ServiceType=Installation

Name : componentTimeout
Description : Time out interval for component life cycle operations
    default = 0
    descriptionId = JBIMA2101
    descriptorType = attribute
    displayName = Component Timeout
    displayNameId = JBIMA2100
    isPassword = false
    isStatic = false
    maxValue = 2147483647
    minValue = 0
    name = componentTimeout
    resourceBundleName = com.sun.jbi.management
    toolTip = If the time taken by a component life cycle operation is longer than this time interval, the operation times out.
    tootTipId = JBIMA2102
    unit = milliseconds

Name : installationTimeout
Description : Time out interval for component installation operations
    default = 0
    descriptionId = JBIMA2104
    descriptorType = attribute
    displayName = Installation Timeout
    displayNameId = JBIMA2103
    isPassword = false
    isStatic = false
    maxValue = 2147483647
    minValue = 0
    name = installationTimeout
    resourceBundleName = com.sun.jbi.management
    toolTip = If the time taken by a component installation operation is longer than this time interval, the operation times out.
    tootTipId = JBIMA2105
    unit = milliseconds

Name : autoInstallEnabled
Description : Enable the auto-install feature
    default = true
    descriptionId = JBIMA2107
    descriptorType = attribute
    displayName = Auto Install Enabled
    displayNameId = JBIMA2106
    isPassword = false
    isStatic = false
    name = autoInstallEnabled
    resourceBundleName = com.sun.jbi.management
    toolTip = If set to false, auto-install is disabled.
    tootTipId = JBIMA2108

Name : autoUninstallEnabled
Description : Enable the auto-uninstall feature
    default = true
    descriptionId = JBIMA2113
    descriptorType = attribute
    displayName = Auto Uninstall Enabled
    displayNameId = JBIMA2112
    isPassword = false
    isStatic = false
    name = autoUninstallEnabled
    resourceBundleName = com.sun.jbi.management
    toolTip = When this property is set to "true" (together with the "Auto Install Enabled" property), then the system will automatically uninstall components and shared libraries when their archive file is removed from the autoinstall directory.
    tootTipId = JBIMA2114

Name : autoReinstallEnabled
Description : Enable the auto-reinstall feature
    default = true
    descriptionId = JBIMA2116
    descriptorType = attribute
    displayName = Auto Reinstall Enabled
    displayNameId = JBIMA2115
    isPassword = false
    isStatic = false
    name = autoReinstallEnabled
    resourceBundleName = com.sun.jbi.management
    toolTip = When this property is set to "true" (together with the "Auto Install Enabled" and "Auto Uninstall Enabled" properties), then the system will automatically reinstall (uninstall of the old version, followed by autoinstall of the new version) components and shared libraries when their archive file is updated in the autoinstall directory.
    tootTipId = JBIMA2117

Name : autoInstallDir
Description : This is the directory for installing components automatically. 
IGNORE    default = D:/nikita/dev/jsr208/jnet/open-esb/install/as8/domains/CAS/jbi\autoinstall
    descriptionId = JBIMA2110
    descriptorType = attribute
    displayName = Auto intstallation directory
    displayNameId = JBIMA2109
    isPassword = false
    isStatic = true
    name = autoInstallDir
    resourceBundleName = com.sun.jbi.management
    toolTip = To install a component automatically, just drop the component installation zip in this directory.
    tootTipId = JBIMA2111

BUILD SUCCESSFUL
IGNORE Total time: 4 seconds
IGNORE JBI_HOME is D:/nikita/dev/jsr208/jnet/open-esb/install/as8/jbi
IGNORE JBI_DOMAIN_ROOT is D:/nikita/dev/jsr208/jnet/open-esb/install/as8/domains/CAS
IGNORE jbi_instance_name is server
IGNORE jmx.provider is service:jmx:rmi:///jndi/rmi://Mystique01:10789/management/rmi-jmx-connector
IGNORE JBI_HOME is D:/nikita/dev/jsr208/jnet/open-esb/install/as8/jbi
IGNORE JBI_DOMAIN_ROOT is D:/nikita/dev/jsr208/jnet/open-esb/install/as8/domains/CAS
IGNORE jbi_instance_name is server
IGNORE jmx.provider is service:jmx:rmi:///jndi/rmi://Mystique01:10789/management/rmi-jmx-connector
-----------------------------------------------------------------------
Test the runtime installation configuration MBean for target = server
-----------------------------------------------------------------------
##### Value of attribute componentTimeout has been set to 111
##### Value of attribute componentTimeout = 111
##### Value of attribute installationTimeout has been set to 201
##### Value of attribute installationTimeout = 201
##### Value of attribute autoInstallEnabled has been set to false
##### Value of attribute autoInstallEnabled = false
IGNORE JBI_HOME is D:/nikita/dev/jsr208/jnet/open-esb/install/as8/jbi
IGNORE JBI_DOMAIN_ROOT is D:/nikita/dev/jsr208/jnet/open-esb/install/as8/domains/CAS
IGNORE jbi_instance_name is server
IGNORE jmx.provider is service:jmx:rmi:///jndi/rmi://Mystique01:10789/management/rmi-jmx-connector
-----------------------------------------------------------------------
Test the runtime deployment configuration MBean for target = server
-----------------------------------------------------------------------
##### Value of attribute serviceUnitTimeout has been set to 222
##### Value of attribute serviceUnitTimeout = 222
##### Value of attribute deploymentTimeout has been set to 301
##### Value of attribute deploymentTimeout = 301
##### Value of attribute autoDeployEnabled has been set to false
##### Value of attribute autoDeployEnabled = false
##### Value of attribute startOnDeploy has been set to false
##### Value of attribute startOnDeploy = false
IGNORE ##### Value of attribute autoDeployDir = D:/nikita/dev/jsr208/jnet/open-esb/install/as8/domains/CAS\autodeploy
IGNORE JBI_HOME is D:/nikita/dev/jsr208/jnet/open-esb/install/as8/jbi
IGNORE JBI_DOMAIN_ROOT is D:/nikita/dev/jsr208/jnet/open-esb/install/as8/domains/CAS
IGNORE jbi_instance_name is server
IGNORE jmx.provider is service:jmx:rmi:///jndi/rmi://Mystique01:10789/management/rmi-jmx-connector
--------------------------------------------------------------------
Test the runtime system configuration MBean for target = server
--------------------------------------------------------------------
##### Value of attribute heartBeatInterval has been set to 60000
##### Value of attribute heartBeatInterval = 60000
##### Value of attribute msgSvcTimingStatisticsEnabled has been set to true
##### Value of attribute msgSvcTimingStatisticsEnabled = true
##### Value of attribute msgSvcTimingStatisticsEnabled has been set to false
IGNORE ##### Value of attribute jbiHome = D:/nikita/dev/jsr208/jnet/open-esb/install/as8/jbi

BUILD SUCCESSFUL
IGNORE Total time: 6 seconds
IGNORE JBI_HOME is D:/nikita/dev/jsr208/jnet/open-esb/install/as8/jbi
IGNORE JBI_DOMAIN_ROOT is D:/nikita/dev/jsr208/jnet/open-esb/install/as8/domains/CAS
IGNORE jbi_instance_name is server
IGNORE jmx.provider is service:jmx:rmi:///jndi/rmi://Mystique01:10789/management/rmi-jmx-connector
IGNORE JBI_HOME is D:/nikita/dev/jsr208/jnet/open-esb/install/as8/jbi
IGNORE JBI_DOMAIN_ROOT is D:/nikita/dev/jsr208/jnet/open-esb/install/as8/domains/CAS
IGNORE jbi_instance_name is server
IGNORE jmx.provider is service:jmx:rmi:///jndi/rmi://Mystique01:10789/management/rmi-jmx-connector
-----------------------------------------------------------------------
Test the runtime installation configuration MBean for target = instance1
-----------------------------------------------------------------------
##### Value of attribute componentTimeout has been set to 111
##### Value of attribute componentTimeout = 111
##### Value of attribute installationTimeout has been set to 201
##### Value of attribute installationTimeout = 201
##### Value of attribute autoInstallEnabled has been set to false
##### Value of attribute autoInstallEnabled = false
IGNORE JBI_HOME is D:/nikita/dev/jsr208/jnet/open-esb/install/as8/jbi
IGNORE JBI_DOMAIN_ROOT is D:/nikita/dev/jsr208/jnet/open-esb/install/as8/domains/CAS
IGNORE jbi_instance_name is server
IGNORE jmx.provider is service:jmx:rmi:///jndi/rmi://Mystique01:10789/management/rmi-jmx-connector
-----------------------------------------------------------------------
Test the runtime deployment configuration MBean for target = instance1
-----------------------------------------------------------------------
##### Value of attribute serviceUnitTimeout has been set to 222
##### Value of attribute serviceUnitTimeout = 222
##### Value of attribute deploymentTimeout has been set to 301
##### Value of attribute deploymentTimeout = 301
##### Value of attribute autoDeployEnabled has been set to false
##### Value of attribute autoDeployEnabled = false
##### Value of attribute startOnDeploy has been set to false
##### Value of attribute startOnDeploy = false
IGNORE ##### Value of attribute autoDeployDir = D:/nikita/dev/jsr208/jnet/open-esb/install/as8/domains/CAS\autodeploy
IGNORE JBI_HOME is D:/nikita/dev/jsr208/jnet/open-esb/install/as8/jbi
IGNORE JBI_DOMAIN_ROOT is D:/nikita/dev/jsr208/jnet/open-esb/install/as8/domains/CAS
IGNORE jbi_instance_name is server
IGNORE jmx.provider is service:jmx:rmi:///jndi/rmi://Mystique01:10789/management/rmi-jmx-connector
--------------------------------------------------------------------
Test the runtime system configuration MBean for target = instance1
--------------------------------------------------------------------
##### Value of attribute heartBeatInterval has been set to 60000
##### Value of attribute heartBeatInterval = 60000
##### Value of attribute msgSvcTimingStatisticsEnabled has been set to true
##### Value of attribute msgSvcTimingStatisticsEnabled = true
##### Value of attribute msgSvcTimingStatisticsEnabled has been set to false
IGNORE ##### Value of attribute jbiHome = D:/nikita/dev/jsr208/jnet/open-esb/install/as8/jbi

BUILD SUCCESSFUL
IGNORE Total time: 5 seconds
IGNORE JBI_HOME is D:/nikita/dev/jsr208/jnet/open-esb/install/as8/jbi
IGNORE JBI_DOMAIN_ROOT is D:/nikita/dev/jsr208/jnet/open-esb/install/as8/domains/CAS
IGNORE jbi_instance_name is server
IGNORE jmx.provider is service:jmx:rmi:///jndi/rmi://Mystique01:10789/management/rmi-jmx-connector
IGNORE JBI_HOME is D:/nikita/dev/jsr208/jnet/open-esb/install/as8/jbi
IGNORE JBI_DOMAIN_ROOT is D:/nikita/dev/jsr208/jnet/open-esb/install/as8/domains/CAS
IGNORE jbi_instance_name is server
IGNORE jmx.provider is service:jmx:rmi:///jndi/rmi://Mystique01:10789/management/rmi-jmx-connector
-----------------------------------------------------------------------
Test the runtime installation configuration MBean for target = domain
-----------------------------------------------------------------------
##### Value of attribute componentTimeout has been set to 111
##### Value of attribute componentTimeout = 111
##### Value of attribute installationTimeout has been set to 201
##### Value of attribute installationTimeout = 201
##### Value of attribute autoInstallEnabled has been set to false
##### Value of attribute autoInstallEnabled = false
IGNORE JBI_HOME is D:/nikita/dev/jsr208/jnet/open-esb/install/as8/jbi
IGNORE JBI_DOMAIN_ROOT is D:/nikita/dev/jsr208/jnet/open-esb/install/as8/domains/CAS
IGNORE jbi_instance_name is server
IGNORE jmx.provider is service:jmx:rmi:///jndi/rmi://Mystique01:10789/management/rmi-jmx-connector
-----------------------------------------------------------------------
Test the runtime deployment configuration MBean for target = domain
-----------------------------------------------------------------------
##### Value of attribute serviceUnitTimeout has been set to 222
##### Value of attribute serviceUnitTimeout = 222
##### Value of attribute deploymentTimeout has been set to 301
##### Value of attribute deploymentTimeout = 301
##### Value of attribute autoDeployEnabled has been set to false
##### Value of attribute autoDeployEnabled = false
##### Value of attribute startOnDeploy has been set to false
##### Value of attribute startOnDeploy = false
IGNORE ##### Value of attribute autoDeployDir = D:/nikita/dev/jsr208/jnet/open-esb/install/as8/domains/CAS\autodeploy
IGNORE JBI_HOME is D:/nikita/dev/jsr208/jnet/open-esb/install/as8/jbi
IGNORE JBI_DOMAIN_ROOT is D:/nikita/dev/jsr208/jnet/open-esb/install/as8/domains/CAS
IGNORE jbi_instance_name is server
IGNORE jmx.provider is service:jmx:rmi:///jndi/rmi://Mystique01:10789/management/rmi-jmx-connector
--------------------------------------------------------------------
Test the runtime system configuration MBean for target = domain
--------------------------------------------------------------------
##### Value of attribute heartBeatInterval has been set to 60000
##### Value of attribute heartBeatInterval = 60000
##### Value of attribute msgSvcTimingStatisticsEnabled has been set to true
##### Value of attribute msgSvcTimingStatisticsEnabled = true
##### Value of attribute msgSvcTimingStatisticsEnabled has been set to false
IGNORE ##### Value of attribute jbiHome = D:/nikita/dev/jsr208/jnet/open-esb/install/as8/jbi

BUILD SUCCESSFUL
IGNORE Total time: 5 seconds
Setting runtime configuration
IGNORE   jmx connection info: (host=localhost, port=4851, secure=false, username=admin, target=server )
Set configuration succeeded. [
  INFO:(UIANT6000)JBI Runtime configuration set on Target "server"
]

BUILD SUCCESSFUL
IGNORE Total time: 0 seconds
Setting runtime configuration
IGNORE   jmx connection info: (host=localhost, port=4851, secure=false, username=admin, target=instance1 )
Set configuration succeeded. [
  INFO:(UIANT6000)JBI Runtime configuration set on Target "instance1"
]

BUILD SUCCESSFUL
IGNORE Total time: 0 seconds
Setting runtime configuration
IGNORE   jmx connection info: (host=localhost, port=4851, secure=false, username=admin, target=domain )
Set configuration succeeded. [
  INFO:(UIANT6000)JBI Runtime configuration set on Target "domain"
]

BUILD SUCCESSFUL
IGNORE Total time: 0 seconds
