jbiadmin03005 : This test is to verify delete-instance events are processed correctly when JBI framework is not in lazy init
Starting domain ESBTest
Creating nodeagent esbagent1
Creating instance esbinst1
Deleting instance esbinst1
Starting sun-http-binding on target esbinst1
  ERROR:(UICMN2817)Component with name sun-http-binding is not registered in target esbinst1.
CLI137 Command start-jbi-component failed.
Deleting node agent esbagent1
Deleting node agent config for esbagent1
Stopping domain ESBTest
