jbiadmin01505 : -ve test for component upgrade. component throws during upgrade.
install the component in server and instance1
Installed component Upgrade-Component.
Installed component Upgrade-Component.
deploy the SAs in server and instance1
Deployed service assembly Upgrade-SA1.
Deployed service assembly Upgrade-SA2.
Deployed service assembly Upgrade-SA1.
Deployed service assembly Upgrade-SA2.
shut-down the component in server and instance1
Shut Down component Upgrade-Component.
Shut Down component Upgrade-Component.
upgrade the component
Upgrading a component
IGNORE  jmx connection info: (host=localhost, port=4951, secure=false, username=admin)
  name=Upgrade-Component
IGNORE  file=C:/work/cygwin/home/annies/external/open-esb/runtime/esb-manage/bld/test-classes/dist/upgrade-modified.jar

BUILD FAILED
IGNORE C:\work\cygwin\gf\jbi\bin\jbi_admin.xml:471: Upgrade component failed. [
Instance: instance1
  ERROR:(JBIFW1193)Upgrade failed for Binding Upgrade-Component. The component upgrade method threw javax.jbi.JBIException with the message: <component-task-result xmlns="http://java.sun.com/xml/ns/jbi/management-message"><component-name>null</component-name><component-task-result-details><task-result-details><task-id>upgrade</task-id><task-result>FAILED</task-result><message-type>ERROR</message-type><task-status-msg><msg-loc-info><loc-token>JBIWHOOPS</loc-token><loc-message>Component Upgrade failed</loc-message></msg-loc-info></task-status-msg></task-result-details></component-task-result-details></component-task-result>
    Caused by:(JBIMA0000)<component-task-result xmlns="http://java.sun.com/xml/ns/jbi/management-message"><component-name>null</component-name><component-task-result-details><task-result-details><task-id>upgrade</task-id><task-result>FAILED</task-result><message-type>ERROR</message-type><task-status-msg><msg-loc-info><loc-token>JBIWHOOPS</loc-token><loc-message>Component Upgrade failed</loc-message></msg-loc-info></task-status-msg></task-result-details></component-task-result-details></component-task-result>
Instance: server
  ERROR:(JBIFW1193)Upgrade failed for Binding Upgrade-Component. The component upgrade method threw javax.jbi.JBIException with the message: <component-task-result xmlns="http://java.sun.com/xml/ns/jbi/management-message"><component-name>null</component-name><component-task-result-details><task-result-details><task-id>upgrade</task-id><task-result>FAILED</task-result><message-type>ERROR</message-type><task-status-msg><msg-loc-info><loc-token>JBIWHOOPS</loc-token><loc-message>Component Upgrade failed</loc-message></msg-loc-info></task-status-msg></task-result-details></component-task-result-details></component-task-result>
    Caused by:(JBIMA0000)<component-task-result xmlns="http://java.sun.com/xml/ns/jbi/management-message"><component-name>null</component-name><component-task-result-details><task-result-details><task-id>upgrade</task-id><task-result>FAILED</task-result><message-type>ERROR</message-type><task-status-msg><msg-loc-info><loc-token>JBIWHOOPS</loc-token><loc-message>Component Upgrade failed</loc-message></msg-loc-info></task-status-msg></task-result-details></component-task-result-details></component-task-result>
]

IGNORE Total time: 3 seconds
verify if SU roots have been restored from backup
SU1 root has been restored in server
SU2 root has been restored in server
SU1 root has been restored in instance1
SU2 root has been restored in instance1
verify that component install root has been replaced in server and instance1
Started component Upgrade-Component.
Started component Upgrade-Component.
undeploy the SAs from server and instance1
Undeployed service assembly Upgrade-SA1.
Undeployed service assembly Upgrade-SA2.
Undeployed service assembly Upgrade-SA1.
Undeployed service assembly Upgrade-SA2.
shutdown the component in server and instance1
Shut Down component Upgrade-Component.
Shut Down component Upgrade-Component.
uninstall the component from server and instance1
Uninstalled component Upgrade-Component.
Uninstalled component Upgrade-Component.
Stop instance : instance1
Command stop-instance executed successfully.
