IGNORE jbiadmin00118 : Test installation of a component with a empty string for dependent shared-library
IGNORE JBI_HOME is D:/nikita/dev/jsr208/main/open-esb/install/as8/jbi
IGNORE JBI_DOMAIN_ROOT is D:/nikita/dev/jsr208/main/open-esb/install/as8/domains/CAS
IGNORE jbi_instance_name is server
IGNORE jmx.provider is service:jmx:rmi:///jndi/rmi://Mystique01:10789/management/rmi-jmx-connector

BUILD SUCCESSFUL
IGNORE Total time: 3 seconds
Installing a component
IGNORE   jmx connection info: (host=localhost, port=6951, secure=true, username=admin, target=server )
IGNORE   file=D:/nikita/dev/jsr208/main/open-esb/runtime/esb-manage/bld/test-classes/dist/component-binding5.jar
Install component failed. [
  ERROR:(JBIFW1107)Installation of Binding manage-binding-5 failed. 
    Caused by:(JBIFW2003)LifeCycle implementation could not be loaded. JBIFW2004: Required class BOGUS.CLASS.NAME was not found.
]

BUILD SUCCESSFUL
IGNORE Total time: 4 seconds