jbiadmin01500 : Test Component Update.
start instance instance1
Command start-instance executed successfully.
install the bad component test-component
Installed component test-component.
Installed component test-component.
start the component in server
  ERROR:(JBIFW1149)Binding test-component cannot be started. The LifeCycle start() method threw a javax.jbi.JBIException exception.
    Caused by:(JBIMA0000)<component-task-result xmlns="http://java.sun.com/xml/ns/jbi/management-message"><component-name>test-component</component-name><component-task-result-details><task-result-details><task-id>start</task-id><task-result>FAILED</task-result><message-type>ERROR</message-type><task-status-msg><msg-loc-info><loc-token>JBIWHOOPS</loc-token><loc-message>Component start failed</loc-message></msg-loc-info></task-status-msg></task-result-details></component-task-result-details></component-task-result>
start the component in instance1
  ERROR:(JBIFW1149)Binding test-component cannot be started. The LifeCycle start() method threw a javax.jbi.JBIException exception.
    Caused by:(JBIMA0000)<component-task-result xmlns="http://java.sun.com/xml/ns/jbi/management-message"><component-name>test-component</component-name><component-task-result-details><task-result-details><task-id>start</task-id><task-result>FAILED</task-result><message-type>ERROR</message-type><task-status-msg><msg-loc-info><loc-token>JBIWHOOPS</loc-token><loc-message>Component start failed</loc-message></msg-loc-info></task-status-msg></task-result-details></component-task-result-details></component-task-result>
shut-down the component in server
Shut Down component test-component.
shut-down the component in instance1
Shut Down component test-component.
update the component
IGNORE JBI_HOME is /gf2/jbi
IGNORE JBI_DOMAIN_ROOT is /gf2/domains/CAS
IGNORE jbi_instance_name is server
IGNORE jmx.provider is service:jmx:rmi:///jndi/rmi://AABDULJAFFAR:9689/management/rmi-jmx-connector
IGNORE Update Result : <?xml version="1.0" encoding="UTF-8" standalone="yes"?><jbi-task version="1.0" xmlns="http://java.sun.com/xml/ns/jbi/management-message"><jbi-task-result><frmwk-task-result><frmwk-task-result-details><task-result-details><task-id>updateComponent</task-id><task-result>SUCCESS</task-result><message-type>INFO</message-type></task-result-details><locale>en_US</locale></frmwk-task-result-details></frmwk-task-result></jbi-task-result></jbi-task>.

BUILD SUCCESSFUL
IGNORE Total time: 3 seconds
verify the workspace dir has been preserved in server
verify the workspace dir has been preserved in instance1
verify that install root has been replaced in server
Started component test-component.
verify that install root has been replaced in instance1
Started component test-component.
shutdown the component in server
Shut Down component test-component.
shutdown the component in instance1
Shut Down component test-component.
uninstall the component from server
Uninstalled component test-component.
uninstall the component from instance1
Uninstalled component test-component.
