
-------------------------------------------------------------------
 Start Test : jbi-admin-cli00002
 Description: Test Install, Deploy and Life Cycle Operations
-------------------------------------------------------------------
-------------------------------------------------------------------
 Building the test artifacts
-------------------------------------------------------------------

-------------------------------------------------------------------
 List the Service Assembly cli_test_assembly_unit_1
-------------------------------------------------------------------
list-jbi-service-assemblies | grep cli_test_assembly_unit_1

-------------------------------------------------------------------
 List the Service Engine cli_test_engine1
-------------------------------------------------------------------
list-jbi-service-engines | grep cli_test_engine1

-------------------------------------------------------------------
 List the Binding Component cli_test_binding1
-------------------------------------------------------------------
list-jbi-binding-component | grep cli_test_binding1

-------------------------------------------------------------------
 List the Shared Library cli_test_sns1
-------------------------------------------------------------------
list-jbi-shared-library | grep cli_test_sns1

-------------------------------------------------------------------
 Install the shared library cli_test_sns1
-------------------------------------------------------------------
install-jbi-shared-library cli-test-sns1.jar
Installed shared library cli_test_sns1.

-------------------------------------------------------------------
 Install binding component cli_test_binding1
-------------------------------------------------------------------
install-jbi-component cli-test-binding1.jar
Installed component cli_test_binding1.

-------------------------------------------------------------------
 Install service engine cli_test_engine1
-------------------------------------------------------------------
install-jbi-component cli-test-engine1.jar
Installed component cli_test_engine1.

-------------------------------------------------------------------
 Start the component cli_test_binding1
-------------------------------------------------------------------
start-jbi-component cli_test_binding1
Started component cli_test_binding1.

-------------------------------------------------------------------
 Start the component cli_test_engine1
-------------------------------------------------------------------
start-jbi-component cli_test_engine1
Started component cli_test_engine1.

-------------------------------------------------------------------
 Deploy the service assembly cli_test_assembly_unit_1
-------------------------------------------------------------------
deploy-jbi-service-assembly cli-test-au1.zip
Deployed service assembly cli_test_assembly_unit_1.

-------------------------------------------------------------------
 List the Service Assembly cli_test_assembly_unit_1
-------------------------------------------------------------------
list-jbi-service-assemblies | grep cli_test_assembly_unit_1
cli_test_assembly_unit_1

-------------------------------------------------------------------
 List the Service Engine cli_test_engine1
-------------------------------------------------------------------
list-jbi-service-engines | grep cli_test_engine1
cli_test_engine1

-------------------------------------------------------------------
 List the Binding Component cli_test_binding1
-------------------------------------------------------------------
list-jbi-binding-component | grep cli_test_binding1
cli_test_binding1

-------------------------------------------------------------------
 List the Shared Library cli_test_sns1
-------------------------------------------------------------------
list-jbi-shared-library | grep cli_test_sns1
cli_test_sns1

-------------------------------------------------------------------
 Show the Binding Component cli_test_binding1
-------------------------------------------------------------------
show-jbi-binding-component cli_test_binding1

Component Information
---------------------
Name        : cli_test_binding1
State       : Started
Version     : 1.0
Build Number: 080809
Description : cli test binding with shared namespace.
 
Command show-jbi-binding-component executed successfully.

-------------------------------------------------------------------
 Show the Service Engine cli_test_engine1
-------------------------------------------------------------------
show-jbi-service-engine cli_test_engine1

Component Information
---------------------
Name        : cli_test_engine1
State       : Started
Version     : 1.0
Build Number: 080809
Description : cli test engine with shared namespace.
 
Command show-jbi-service-engine executed successfully.

-------------------------------------------------------------------
 Show the shared library cli_test_sns1
-------------------------------------------------------------------
show-jbi-shared-library cli_test_sns1

Shared Library Information
--------------------------
Name        : cli_test_sns1
Version     : 1.0
Build Number: 080809
Description : This is a cli test shared namespace shared
              between cli_test_engine1 and cli_test_binding1

Command show-jbi-shared-library executed successfully.

-------------------------------------------------------------------
 Undeploy the service assembly cli_test_assembly_unit_1
-------------------------------------------------------------------
undeploy-jbi-service-assembly cli_test_assembly_unit_1
Undeployed service assembly cli_test_assembly_unit_1.

-------------------------------------------------------------------
 Shut Down the component cli_test_binding1
-------------------------------------------------------------------
shut-down-jbi-component cli_test_binding1
Shut Down component cli_test_binding1.

-------------------------------------------------------------------
 Shut Down the component cli_test_engine1
-------------------------------------------------------------------
shut-down-jbi-componen cli_test_engine1
Shut Down component cli_test_engine1.

-------------------------------------------------------------------
 Uninstall the component cli_test_binding1
-------------------------------------------------------------------
uninstall-jbi-component cli_test_binding1
Uninstalled component cli_test_binding1.

-------------------------------------------------------------------
 Uninstall the component cli_test_engine1
-------------------------------------------------------------------
uninstall-jbi-component cli_test_engine1
Uninstalled component cli_test_engine1.

-------------------------------------------------------------------
 Uninstall the shared library cli_test_sns1
-------------------------------------------------------------------
uninstall-jbi-shared-library cli_test_sns1
Uninstalled shared library cli_test_sns1.

-------------------------------------------------------------------
 Install the shared library cli_test_sns1
-------------------------------------------------------------------
install-jbi-shared-library cli-test-sns1.jar
Installed shared library cli_test_sns1.

-------------------------------------------------------------------
 Install binding component cli_test_binding1
-------------------------------------------------------------------
install-jbi-component cli-test-binding1.jar
Installed component cli_test_binding1.

-------------------------------------------------------------------
 Install service engine cli_test_engine1
-------------------------------------------------------------------
install-jbi-component cli-test-engine1.jar
Installed component cli_test_engine1.

-------------------------------------------------------------------
 Start the component cli_test_binding1
-------------------------------------------------------------------
start-jbi-component cli_test_binding1
Started component cli_test_binding1.

-------------------------------------------------------------------
 Start the component cli_test_engine1
-------------------------------------------------------------------
start-jbi-component cli_test_engine1
Started component cli_test_engine1.

-------------------------------------------------------------------
 Deploy the service assembly cli_test_assembly_unit_1
-------------------------------------------------------------------
deploy-jbi-service-assembly cli-test-au1.zip
Deployed service assembly cli_test_assembly_unit_1.

-------------------------------------------------------------------
 Stop the component cli_test_binding1
-------------------------------------------------------------------
stop-jbi-component cli_test_binding1
Stopped component cli_test_binding1.

-------------------------------------------------------------------
 Stop the component cli_test_engine1
-------------------------------------------------------------------
stop-jbi-component cli_test_engine1
Stopped component cli_test_engine1.

-------------------------------------------------------------------
 Show the Binding Component cli_test_binding1
-------------------------------------------------------------------
show-jbi-binding-component cli_test_binding1

Component Information
---------------------
Name        : cli_test_binding1
State       : Stopped
Version     : 1.0
Build Number: 080809
Description : cli test binding with shared namespace.
 
Command show-jbi-binding-component executed successfully.

-------------------------------------------------------------------
 Show the Service Engine cli_test_engine1
-------------------------------------------------------------------
show-jbi-service-engine cli_test_engine1

Component Information
---------------------
Name        : cli_test_engine1
State       : Stopped
Version     : 1.0
Build Number: 080809
Description : cli test engine with shared namespace.
 
Command show-jbi-service-engine executed successfully.

-------------------------------------------------------------------
 Start the component cli_test_binding1
-------------------------------------------------------------------
start-jbi-component cli_test_binding1
Started component cli_test_binding1.

-------------------------------------------------------------------
 Start the component cli_test_engine1
-------------------------------------------------------------------
start-jbi-component cli_test_engine1
Started component cli_test_engine1.

-------------------------------------------------------------------
 Show the Binding Component cli_test_binding1
-------------------------------------------------------------------
show-jbi-binding-component cli_test_binding1

Component Information
---------------------
Name        : cli_test_binding1
State       : Started
Version     : 1.0
Build Number: 080809
Description : cli test binding with shared namespace.
 
Command show-jbi-binding-component executed successfully.

-------------------------------------------------------------------
 Show the Service Engine cli_test_engine1
-------------------------------------------------------------------
show-jbi-service-engine cli_test_engine1

Component Information
---------------------
Name        : cli_test_engine1
State       : Started
Version     : 1.0
Build Number: 080809
Description : cli test engine with shared namespace.
 
Command show-jbi-service-engine executed successfully.

-------------------------------------------------------------------
 Shut Down the component cli_test_binding1
-------------------------------------------------------------------
shut-down-jbi-component cli_test_binding1
Shut Down component cli_test_binding1.

-------------------------------------------------------------------
 Shut Down the component cli_test_engine1
-------------------------------------------------------------------
shut-down-jbi-componen cli_test_engine1
Shut Down component cli_test_engine1.

-------------------------------------------------------------------
 Show the Binding Component cli_test_binding1
-------------------------------------------------------------------
show-jbi-binding-component cli_test_binding1

Component Information
---------------------
Name        : cli_test_binding1
State       : Shutdown
Version     : 1.0
Build Number: 080809
Description : cli test binding with shared namespace.
 
Command show-jbi-binding-component executed successfully.

-------------------------------------------------------------------
 Show the Service Engine cli_test_engine1
-------------------------------------------------------------------
show-jbi-service-engine cli_test_engine1

Component Information
---------------------
Name        : cli_test_engine1
State       : Shutdown
Version     : 1.0
Build Number: 080809
Description : cli test engine with shared namespace.
 
Command show-jbi-service-engine executed successfully.

-------------------------------------------------------------------
 List the Service Assembly cli_test_assembly_unit_1
-------------------------------------------------------------------
list-jbi-service-assemblies | grep cli_test_assembly_unit_1
cli_test_assembly_unit_1

-------------------------------------------------------------------
 List the Service Engine cli_test_engine1
-------------------------------------------------------------------
list-jbi-service-engines | grep cli_test_engine1
cli_test_engine1

-------------------------------------------------------------------
 List the Binding Component cli_test_binding1
-------------------------------------------------------------------
list-jbi-binding-component | grep cli_test_binding1
cli_test_binding1

-------------------------------------------------------------------
 List the Shared Library cli_test_sns1
-------------------------------------------------------------------
list-jbi-shared-library | grep cli_test_sns1
cli_test_sns1
