
-------------------------------------------------------------------
 Start Test : jbi-admin-cli00005
 Description: Test Invalid input for install
-------------------------------------------------------------------
-------------------------------------------------------------------
 Building the test artifacts
-------------------------------------------------------------------

-------------------------------------------------------------------
 Try to install a shared library with no operand given.
-------------------------------------------------------------------
install-jbi-shared-library 

-------------------------------------------------------------------
 Try to install a binding component with no operand given.
-------------------------------------------------------------------
install-jbi-component

-------------------------------------------------------------------
 Try to install a shared library with a bogus operand given.
-------------------------------------------------------------------
install-jbi-shared-library --target=server fred
  ERROR:(JBIMA1303)Shared Library fred is not registered in the domain.

-------------------------------------------------------------------
 Try to install a component with a bogus operand given
-------------------------------------------------------------------
install-jbi-component  --target=server fred
  ERROR:(JBIMA1301)Component fred is not registered in the domain.
