
-------------------------------------------------------------------
 Start Test : jbi-admin-cli00011
 Description: Test Application Configuration Commands
-------------------------------------------------------------------
-------------------------------------------------------------------
 Building the test artifacts
-------------------------------------------------------------------
-------------------------------------------------------------------
 Building and packaging the test component cli-config-binding
-------------------------------------------------------------------

-------------------------------------------------------------------
 List the Application Configurations for the cli-config-binding component
-------------------------------------------------------------------
list-jbi-application-configurations --component=cli-config-binding
defaultConfig
Command list-jbi-application-configurations executed successfully.

-------------------------------------------------------------------
 Show the Application Configuration defaultConfig for the cli-config-binding component
-------------------------------------------------------------------
show-jbi-application-configuration --component=cli-config-binding defaultConfig
configurationName = defaultConfig
connectionFactoryName = com.sun.connxn.factory.name
connectionURL = http://www.sun.com
initialContextFactory = com.sun.initialContextFactory
jndienv.0 = env1=value1
jndienv.1 = env2=value2
password = mySecret
providerURL = https://localhost:2506
securityCredentials = abc
securityPrincipal = administrator
username = john
Command show-jbi-application-configuration executed successfully.

-------------------------------------------------------------------
 Create another Application Configuration for the cli-config-binding component
-------------------------------------------------------------------
create-jbi-application-configuration --component=cli-config-binding --configname=testConfig testConfigData.properties
Command create-jbi-application-configuration executed successfully.

-------------------------------------------------------------------
 Show the Application Configuration testConfig for the cli-config-binding component
-------------------------------------------------------------------
show-jbi-application-configuration --component=cli-config-binding testConfig
configurationName = testConfig
connectionFactoryName = com.sun.connxn.factory.name
connectionURL = http://www.sun.com
initialContextFactory = com.sun.initialContextFactory
password = mySecret
providerURL = https://localhost:2506
securityCredentials = abc
securityPrincipal = administrator
username = fred
Command show-jbi-application-configuration executed successfully.

-------------------------------------------------------------------
 Update the Application Configuration defaultConfig
-------------------------------------------------------------------
update-jbi-application-configuration --component=cli-config-binding --configname=defaultConfig username=steve
Command update-jbi-application-configuration executed successfully.

-------------------------------------------------------------------
 Update the Application Configuration testConfig
-------------------------------------------------------------------
update-jbi-application-configuration --component=cli-config-binding --configname=testConfig username=steve
Command update-jbi-application-configuration executed successfully.

-------------------------------------------------------------------
 List the Application Configurations for the cli-config-binding component
-------------------------------------------------------------------
list-jbi-application-configurations --component=cli-config-binding
testConfig
defaultConfig
Command list-jbi-application-configurations executed successfully.

-------------------------------------------------------------------
 Delete the Application Configuration testConfig
-------------------------------------------------------------------
delete-jbi-application-configuration --component=cli-config-binding testConfig
Command delete-jbi-application-configuration executed successfully.

-------------------------------------------------------------------
 List the Application Configurations for the cli-config-binding component
-------------------------------------------------------------------
list-jbi-application-configurations --component=cli-config-binding
defaultConfig
Command list-jbi-application-configurations executed successfully.
