admincommon00009: Test getting the configuration meta data and schema.
jbi_instance_name is server
IGNORE IGNORE  jmx.provider is service:jmx:rmi:///jndi/rmi://nikita-sawants-computer.local:8687/management/rmi-jmx-connector

BUILD SUCCESSFUL
IGNORE IGNORE Total time: 0 seconds
jbi_instance_name is server
IGNORE IGNORE  jmx.provider is service:jmx:rmi:///jndi/rmi://nikita-sawants-computer.local:8687/management/rmi-jmx-connector
##### Result of  retrieveConfigurationDisplayData( target=server ): caught expected exception.
Exception class com.sun.esb.management.common.ManagementRemoteException thrown by retrieveConfigurationDisplayData with Message 
<?xml version="1.0" encoding="UTF-8" standalone="yes"?><jbi-task version="1.0" xmlns="http://java.sun.com/xml/ns/jbi/management-message" xmlns:xsi="http://www.w3.org/2001/XMLSchema-instance" > <jbi-task-result><frmwk-task-result><frmwk-task-result-details><task-result-details><task-id>JBI_UI_COMMON_TASKS</task-id><task-result>FAILED</task-result><message-type>ERROR</message-type><task-status-msg><msg-loc-info><loc-token>UICMN3000</loc-token><loc-message>Component admin-common-binding-1 is not installed on target server. Please install the component and retry this operation.</loc-message><loc-param>admin-common-binding-1</loc-param><loc-param>server</loc-param></msg-loc-info></task-status-msg></task-result-details><locale></locale></frmwk-task-result-details><is-cause-framework>YES</is-cause-framework></frmwk-task-result></jbi-task-result></jbi-task>
##### Result of  retrieveConfigurationDisplaySchema( target=server ): caught expected exception.
Exception class com.sun.esb.management.common.ManagementRemoteException thrown by retrieveConfigurationDisplaySchema with Message 
<?xml version="1.0" encoding="UTF-8" standalone="yes"?><jbi-task version="1.0" xmlns="http://java.sun.com/xml/ns/jbi/management-message" xmlns:xsi="http://www.w3.org/2001/XMLSchema-instance" > <jbi-task-result><frmwk-task-result><frmwk-task-result-details><task-result-details><task-id>JBI_UI_COMMON_TASKS</task-id><task-result>FAILED</task-result><message-type>ERROR</message-type><task-status-msg><msg-loc-info><loc-token>UICMN3000</loc-token><loc-message>Component admin-common-binding-1 is not installed on target server. Please install the component and retry this operation.</loc-message><loc-param>admin-common-binding-1</loc-param><loc-param>server</loc-param></msg-loc-info></task-status-msg></task-result-details><locale></locale></frmwk-task-result-details><is-cause-framework>YES</is-cause-framework></frmwk-task-result></jbi-task-result></jbi-task>
##### Result of  queryApplicationConfigurationType( target=server ): caught expected exception.
Exception class com.sun.esb.management.common.ManagementRemoteException thrown by queryApplicationConfigurationType with Message 
<?xml version="1.0" encoding="UTF-8" standalone="yes"?><jbi-task version="1.0" xmlns="http://java.sun.com/xml/ns/jbi/management-message" xmlns:xsi="http://www.w3.org/2001/XMLSchema-instance" > <jbi-task-result><frmwk-task-result><frmwk-task-result-details><task-result-details><task-id>JBI_UI_COMMON_TASKS</task-id><task-result>FAILED</task-result><message-type>ERROR</message-type><task-status-msg><msg-loc-info><loc-token>UICMN3000</loc-token><loc-message>Component admin-common-binding-1 is not installed on target server. Please install the component and retry this operation.</loc-message><loc-param>admin-common-binding-1</loc-param><loc-param>server</loc-param></msg-loc-info></task-status-msg></task-result-details><locale></locale></frmwk-task-result-details><is-cause-framework>YES</is-cause-framework></frmwk-task-result></jbi-task-result></jbi-task>

BUILD SUCCESSFUL
IGNORE Total time: 1 second
IGNORE jbi_instance_name is server
IGNORE jmx.provider is service:jmx:rmi:///jndi/rmi://dhcp-usca22-163-67.sfbay.sun.com:8687/management/rmi-jmx-connector
##### Result of  isAppVarsSupported = Exception : <?xml version="1.0" encoding="UTF-8" standalone="yes"?><jbi-task version="1.0" xmlns="http://java.sun.com/xml/ns/jbi/management-message" xmlns:xsi="http://www.w3.org/2001/XMLSchema-instance" > <jbi-task-result><frmwk-task-result><frmwk-task-result-details><task-result-details><task-id>JBI_UI_COMMON_TASKS</task-id><task-result>FAILED</task-result><message-type>ERROR</message-type><task-status-msg><msg-loc-info><loc-token>UICMN3000</loc-token><loc-message>Component admin-common-binding-1 is not installed on target server. Please install the component and retry this operation.</loc-message><loc-param>admin-common-binding-1</loc-param><loc-param>server</loc-param></msg-loc-info></task-status-msg></task-result-details><locale></locale></frmwk-task-result-details><is-cause-framework>YES</is-cause-framework></frmwk-task-result></jbi-task-result></jbi-task>
##### Result of  isAppConfigSupported = Exception : <?xml version="1.0" encoding="UTF-8" standalone="yes"?><jbi-task version="1.0" xmlns="http://java.sun.com/xml/ns/jbi/management-message" xmlns:xsi="http://www.w3.org/2001/XMLSchema-instance" > <jbi-task-result><frmwk-task-result><frmwk-task-result-details><task-result-details><task-id>JBI_UI_COMMON_TASKS</task-id><task-result>FAILED</task-result><message-type>ERROR</message-type><task-status-msg><msg-loc-info><loc-token>UICMN3000</loc-token><loc-message>Component admin-common-binding-1 is not installed on target server. Please install the component and retry this operation.</loc-message><loc-param>admin-common-binding-1</loc-param><loc-param>server</loc-param></msg-loc-info></task-status-msg></task-result-details><locale></locale></frmwk-task-result-details><is-cause-framework>YES</is-cause-framework></frmwk-task-result></jbi-task-result></jbi-task>
##### Result of  isComponentConfigSupported = Exception : <?xml version="1.0" encoding="UTF-8" standalone="yes"?><jbi-task version="1.0" xmlns="http://java.sun.com/xml/ns/jbi/management-message" xmlns:xsi="http://www.w3.org/2001/XMLSchema-instance" > <jbi-task-result><frmwk-task-result><frmwk-task-result-details><task-result-details><task-id>JBI_UI_COMMON_TASKS</task-id><task-result>FAILED</task-result><message-type>ERROR</message-type><task-status-msg><msg-loc-info><loc-token>UICMN3000</loc-token><loc-message>Component admin-common-binding-1 is not installed on target server. Please install the component and retry this operation.</loc-message><loc-param>admin-common-binding-1</loc-param><loc-param>server</loc-param></msg-loc-info></task-status-msg></task-result-details><locale></locale></frmwk-task-result-details><is-cause-framework>YES</is-cause-framework></frmwk-task-result></jbi-task-result></jbi-task>

BUILD SUCCESSFUL
IGNORE Total time: 1 second
Installing a component
IGNORE  jmx connection info: (host=localhost, port=4849, secure=false, username=admin, target=server )
IGNORE  file=/Users/nikki/dev/jbi/open-esb/ri-clients/jbi-admin-common/bld/regress/testdata/component-with-custom-mbean.jar
Install component succeeded. [
admin-common-binding-1
]

BUILD SUCCESSFUL
IGNORE Total time: 0 seconds
jbi_instance_name is server
IGNORE  jmx.provider is service:jmx:rmi:///jndi/rmi://nikita-sawants-computer.local:8687/management/rmi-jmx-connector
##### Result of  retrieveConfigurationDisplayData( target=server ): caught expected exception.
Exception class com.sun.esb.management.common.ManagementRemoteException thrown by retrieveConfigurationDisplayData with Message 
<?xml version="1.0" encoding="UTF-8" standalone="yes"?><jbi-task version="1.0" xmlns="http://java.sun.com/xml/ns/jbi/management-message"><jbi-task-result><frmwk-task-result><frmwk-task-result-details><task-result-details><task-id>componentStartedOrStoppedOnTargetCheck</task-id><task-result>FAILED</task-result><message-type>ERROR</message-type><task-status-msg><msg-loc-info><loc-token>JBIMA1803</loc-token><loc-message>Component admin-common-binding-1 is in the Shutdown state. Cannot create, update, list or delete configuration for a component which is not in Started or Stopped state.</loc-message><loc-param>admin-common-binding-1</loc-param><loc-param>Shutdown</loc-param><loc-param>server</loc-param></msg-loc-info></task-status-msg></task-result-details><locale>en</locale></frmwk-task-result-details></frmwk-task-result></jbi-task-result></jbi-task>
##### Result of  retrieveConfigurationDisplaySchema( target=server ): caught expected exception.
Exception class com.sun.esb.management.common.ManagementRemoteException thrown by retrieveConfigurationDisplaySchema with Message 
<?xml version="1.0" encoding="UTF-8" standalone="yes"?><jbi-task version="1.0" xmlns="http://java.sun.com/xml/ns/jbi/management-message"><jbi-task-result><frmwk-task-result><frmwk-task-result-details><task-result-details><task-id>componentStartedOrStoppedOnTargetCheck</task-id><task-result>FAILED</task-result><message-type>ERROR</message-type><task-status-msg><msg-loc-info><loc-token>JBIMA1803</loc-token><loc-message>Component admin-common-binding-1 is in the Shutdown state. Cannot create, update, list or delete configuration for a component which is not in Started or Stopped state.</loc-message><loc-param>admin-common-binding-1</loc-param><loc-param>Shutdown</loc-param><loc-param>server</loc-param></msg-loc-info></task-status-msg></task-result-details><locale>en</locale></frmwk-task-result-details></frmwk-task-result></jbi-task-result></jbi-task>
##### Result of  queryApplicationConfigurationType( target=server ): caught expected exception.
Exception class com.sun.esb.management.common.ManagementRemoteException thrown by queryApplicationConfigurationType with Message 
<?xml version="1.0" encoding="UTF-8" standalone="yes"?><jbi-task version="1.0" xmlns="http://java.sun.com/xml/ns/jbi/management-message"><jbi-task-result><frmwk-task-result><frmwk-task-result-details><task-result-details><task-id>queryApplicationConfigurationType</task-id><task-result>FAILED</task-result><message-type>ERROR</message-type><task-status-msg><msg-loc-info><loc-token>JBIFW2550</loc-token><loc-message>Component admin-common-binding-1 has not registered a configuration MBean. </loc-message></msg-loc-info></task-status-msg></task-result-details><locale>en</locale></frmwk-task-result-details></frmwk-task-result></jbi-task-result></jbi-task>

BUILD SUCCESSFUL
IGNORE Total time: 1 second
Starting a component
IGNORE  jmx connection info: (host=localhost, port=4849, secure=false, username=admin, target=server )
  name=admin-common-binding-1
Start component succeeded. [
admin-common-binding-1
]

BUILD SUCCESSFUL
IGNORE Total time: 0 seconds
jbi_instance_name is server
IGNORE  jmx.provider is service:jmx:rmi:///jndi/rmi://nikita-sawants-computer.local:8687/management/rmi-jmx-connector
##### Result of retrieveConfigurationDisplayData = <componentConfig:Configuration name="sun-http-binding" xmlns:componentConfig="http://com.sun.jbi.component/schema/configuration">  &#10;        &#10;        &#10;    <componentConfig:A displayDescription="A" displayName="A" isPasswordField="false">10</componentConfig:A>  &#10;&#10;    <componentConfig:B displayDescription="B" displayName="B" isPasswordField="false">1111</componentConfig:B>  &#10;&#10;    <componentConfig:C displayDescription="C" displayName="C" isPasswordField="false">2222</componentConfig:C>  &#10;&#10;    &#10;    <componentConfig:ApplicationConfigurations> &#10;&#10;        <componentConfig:configurationName displayDescription="Specifies the name of the application configuration." displayName="Application Configuration Name" isPasswordField="false" isRequiredField="true">dummy</componentConfig:configurationName> &#10;&#10;        <componentConfig:connectionURL displayDescription="Connection URL" displayName="Connection URL" isPasswordField="false" isRequiredField="true">http://localhost:8080/myservice</componentConfig:connectionURL>  &#10;&#10;        <componentConfig:securityPrincipal displayDescription="Specifies the security principal." displayName="Security Principal" isPasswordField="false" isRequiredField="true">admin</componentConfig:securityPrincipal> &#10;&#10;&#10;        <componentConfig:securityCredential displayDescription="Specifies the user password." displayName="User Password" isPasswordField="true" isRequiredField="true">secret</componentConfig:securityCredential> &#10;&#10;&#10;        <componentConfig:jndienv displayDescription="Specifies the JNDI Environment Properties." displayName="JNDI Environment Properties" isPasswordField="false" isRequiredField="false"></componentConfig:jndienv> &#10;&#10;    </componentConfig:ApplicationConfigurations>&#10;    &#10;    <componentConfig:ApplicationVariables displayDescription="A list of application variables" displayName="Application Variables" isApplicationRestartRequired="true" isComponentRestartRequired="false" isPasswordField="false" isServerRestartRequired="false">&#10;&#10;&#9;        <componentConfig:name displayDescription="Name of the application variable" displayName="Application Variable Name" isPasswordField="false" isRequiredField="true">dummy</componentConfig:name>&#10;&#10;&#9;        <componentConfig:value displayDescription="Value of the application variable" displayName="Application Variable Value" isPasswordField="false" isRequiredField="true">dummy</componentConfig:value>&#10;                &#10;                <componentConfig:type displayDescription="Data type of the application variable" displayName="Application Variable Type" isPasswordField="false" isRequiredField="true">dummy</componentConfig:type>&#10;    </componentConfig:ApplicationVariables>&#10;    &#10;</componentConfig:Configuration>

BUILD SUCCESSFUL
IGNORE Total time: 1 second
jbi_instance_name is server
IGNORE  jmx.provider is service:jmx:rmi:///jndi/rmi://nikita-sawants-computer.local:8687/management/rmi-jmx-connector
##### Result of retrieveConfigurationDisplaySchema = <xsd:schema attributeFormDefault="unqualified" elementFormDefault="qualified" targetNamespace="http://com.sun.jbi.component/schema/configuration" xmlns:tns="http://com.sun.jbi.component/schema/configuration" xmlns:xsd="http://www.w3.org/2001/XMLSchema">&#10;    &#10;    <xsd:element name="Configuration" type="tns:ConfigurationType"></xsd:element>&#10;    &#10;    <xsd:complexType name="ConfigurationType">&#10;        <xsd:sequence>&#10;            <xsd:element name="A" type="tns:componentConfigurationStringType">&#10;            </xsd:element>&#10;            &#10;            <xsd:element name="B" type="tns:componentConfigurationStringType">&#10;            </xsd:element>&#10;            &#10;            <xsd:element name="C" type="tns:componentConfigurationStringType">&#10;            </xsd:element>            &#10;&#10;            <xsd:element name="ApplicationConfigurations" type="tns:ApplicationConfigurationsType">&#10;            </xsd:element>&#10;            &#10;            <xsd:element name="ApplicationVariables" type="tns:ApplicationVariablesType">&#10;            </xsd:element>&#10;&#10;        </xsd:sequence>&#10;        <xsd:attribute name="name" type="xsd:string"></xsd:attribute>&#10;    </xsd:complexType>&#10;    &#10;    <xsd:complexType name="componentConfigurationStringType">&#10;        <xsd:simpleContent>&#10;            <xsd:extension base="tns:SimpleStringType">&#10;                <xsd:attribute name="displayName" type="xsd:string"></xsd:attribute>&#10;                <xsd:attribute name="displayDescription" type="xsd:string"></xsd:attribute>&#10;                <xsd:attribute name="isPasswordField" type="xsd:boolean"></xsd:attribute>&#10;                <xsd:attribute name="isApplicationRestartRequired" type="xsd:boolean"></xsd:attribute>&#10;                <xsd:attribute name="isComponentRestartRequired" type="xsd:boolean"></xsd:attribute>&#10;                <xsd:attribute name="isServerRestartRequired" type="xsd:boolean"></xsd:attribute>&#10;            </xsd:extension>&#10;        </xsd:simpleContent>&#10;    </xsd:complexType>&#10;    &#10;    <xsd:complexType name="appConfigStringType">&#10;        <xsd:simpleContent>&#10;            <xsd:extension base="tns:SimpleStringType">&#10;                &#10;                <xsd:attribute name="displayName" type="xsd:string"></xsd:attribute>&#10;                <xsd:attribute name="displayDescription" type="xsd:string"></xsd:attribute>&#10;                <xsd:attribute name="isPasswordField" type="xsd:boolean"></xsd:attribute>&#10;                <xsd:attribute name="isRequiredField" type="xsd:boolean"></xsd:attribute>&#10;            </xsd:extension>&#10;        </xsd:simpleContent>&#10;    </xsd:complexType>&#10;&#10;    &#10;    <xsd:simpleType name="SimpleStringType">&#10;        <xsd:restriction base="xsd:string">&#10;        </xsd:restriction>&#10;    </xsd:simpleType>&#10;&#10;    &#10;    <xsd:complexType name="ApplicationConfigurationsType">&#10;        <xsd:sequence>&#10;            <xsd:element name="configurationName" type="tns:appConfigStringType"></xsd:element>&#10;            <xsd:element name="connectionURL" type="tns:appConfigStringType"></xsd:element>&#10;            <xsd:element name="securityPrincipal" type="tns:appConfigStringType"></xsd:element>&#10;            <xsd:element name="securityCredential" type="tns:appConfigStringType"></xsd:element>&#10;            <xsd:element maxOccurs="unbounded" name="jndienv" type="tns:appConfigStringType"></xsd:element>&#10;        </xsd:sequence>&#10;       <xsd:attribute name="displayName" type="xsd:string"></xsd:attribute>&#10;        <xsd:attribute name="displayDescription" type="xsd:string"></xsd:attribute>&#10;        <xsd:attribute name="isPasswordField" type="xsd:boolean"></xsd:attribute>&#10;        <xsd:attribute name="isApplicationRestartRequired" type="xsd:boolean"></xsd:attribute>&#10;        <xsd:attribute name="isComponentRestartRequired" type="xsd:boolean"></xsd:attribute>&#10;        <xsd:attribute name="isServerRestartRequired" type="xsd:boolean"></xsd:attribute>&#10;    </xsd:complexType>&#10;&#10;&#10;    &#10;    &#10;    <xsd:complexType name="ApplicationVariablesType">&#10;        <xsd:sequence>&#10;            <xsd:element name="name" type="tns:ApplicationVariableNameType"></xsd:element>&#10;            <xsd:element name="value" type="tns:ApplicationVariableValueType"></xsd:element>&#10;            <xsd:element name="type" type="tns:ApplicationVariableTypeType"></xsd:element>&#10;        </xsd:sequence>&#10;        &#10;                <xsd:attribute name="displayName" type="xsd:string"></xsd:attribute>&#10;                <xsd:attribute name="displayDescription" type="xsd:string"></xsd:attribute>&#10;                <xsd:attribute name="isPasswordField" type="xsd:boolean"></xsd:attribute>&#10;                <xsd:attribute name="isRequiredField" type="xsd:boolean"></xsd:attribute>&#10;                <xsd:attribute name="isApplicationRestartRequired" type="xsd:boolean"></xsd:attribute>&#10;        <xsd:attribute name="isComponentRestartRequired" type="xsd:boolean"></xsd:attribute>&#10;        <xsd:attribute name="isServerRestartRequired" type="xsd:boolean"></xsd:attribute>&#10;    </xsd:complexType>&#10;&#10;    <xsd:complexType name="ApplicationVariableNameType">&#10;        <xsd:simpleContent>&#10;            <xsd:extension base="tns:SimpleStringType">&#10;               &#10;                <xsd:attribute name="displayName" type="xsd:string"></xsd:attribute>&#10;                <xsd:attribute name="displayDescription" type="xsd:string"></xsd:attribute>&#10;                <xsd:attribute name="isPasswordField" type="xsd:boolean"></xsd:attribute>&#10;                <xsd:attribute name="isRequiredField" type="xsd:boolean"></xsd:attribute>&#10;            </xsd:extension>&#10;        </xsd:simpleContent>&#10;    </xsd:complexType>&#10;&#10;    <xsd:complexType name="ApplicationVariableValueType">&#10;        <xsd:simpleContent>&#10;            <xsd:extension base="tns:SimpleStringType">&#10;                &#10;                <xsd:attribute name="displayName" type="xsd:string"></xsd:attribute>&#10;                <xsd:attribute name="displayDescription" type="xsd:string"></xsd:attribute>&#10;                <xsd:attribute name="isPasswordField" type="xsd:boolean"></xsd:attribute>&#10;                <xsd:attribute name="isRequiredField" type="xsd:boolean"></xsd:attribute>&#10;            </xsd:extension>&#10;        </xsd:simpleContent>&#10;    </xsd:complexType>&#10;    &#10;    <xsd:complexType name="ApplicationVariableTypeType">&#10;        <xsd:simpleContent>&#10;            <xsd:extension base="tns:SimpleStringType">&#10;                &#10;                <xsd:attribute name="displayName" type="xsd:string"></xsd:attribute>&#10;                <xsd:attribute name="displayDescription" type="xsd:string"></xsd:attribute>&#10;                <xsd:attribute name="isPasswordField" type="xsd:boolean"></xsd:attribute>&#10;                <xsd:attribute name="isRequiredField" type="xsd:boolean"></xsd:attribute>&#10;            </xsd:extension>&#10;        </xsd:simpleContent>&#10;    </xsd:complexType>&#10;&#10;</xsd:schema>

BUILD SUCCESSFUL
IGNORE Total time: 1 second
jbi_instance_name is server
IGNORE jmx.provider is service:jmx:rmi:///jndi/rmi://nikita-sawants-computer.local:8687/management/rmi-jmx-connector
##### Result of queryApplicationConfigurationType javax.management.openmbean.CompositeType(name=ApplicationConfigurationComposite,items=((itemName=configurationName,itemType=javax.management.openmbean.SimpleType(name=java.lang.String)),(itemName=connectionURL,itemType=javax.management.openmbean.SimpleType(name=java.lang.String)),(itemName=jndienv,itemType=javax.management.openmbean.ArrayType(name=[Ljava.lang.String;,dimension=1,elementType=javax.management.openmbean.SimpleType(name=java.lang.String))),(itemName=securityCredential,itemType=javax.management.openmbean.SimpleType(name=java.lang.String)),(itemName=securityPrincipal,itemType=javax.management.openmbean.SimpleType(name=java.lang.String))))

BUILD SUCCESSFUL
IGNORE Total time: 1 second
IGNORE jbi_instance_name is server
IGNORE jmx.provider is service:jmx:rmi:///jndi/rmi://dhcp-usca22-163-67.sfbay.sun.com:8687/management/rmi-jmx-connector
##### Result of  isAppVarsSupported = true
##### Result of  isAppConfigSupported = true
##### Result of  isComponentConfigSupported = true

BUILD SUCCESSFUL
IGNORE Total time: 1 second
Shutting down a component
IGNORE  jmx connection info: (host=localhost, port=4849, secure=false, username=admin, target=server )
  name=admin-common-binding-1
Shutdown component succeeded. [
admin-common-binding-1
]

BUILD SUCCESSFUL
IGNORE Total time: 0 seconds
Uninstalling a component
IGNORE  jmx connection info: (host=localhost, port=4849, secure=false, username=admin, target=server )
  name=admin-common-binding-1
Uninstall component succeeded. [
admin-common-binding-1
]

BUILD SUCCESSFUL
IGNORE Total time: 0 seconds
