jmsbinding00005.ksh- JMSTest MEPs - jms binding test
added manifest
IGNORE ignoring entry META-INF/
IGNORE adding: META-INF/jbi.xml(in = 983) (out= 407)(deflated 58%)
IGNORE adding: testengine.xml(in = 1033) (out= 430)(deflated 58%)
IGNORE adding: testengine/(in = 0) (out= 0)(stored 0%)
IGNORE adding: testengine/FooEngineBootstrap.class(in = 907) (out= 453)(deflated 50%)
IGNORE adding: testengine/FooEngine.class(in = 14145) (out= 5733)(deflated 59%)
IGNORE adding: testengine/FooEngine$Receiver.class(in = 2652) (out= 1240)(deflated 53%)
IGNORE adding: testengine/Payload.class(in = 1830) (out= 887)(deflated 51%)
IGNORE adding: testengine/payload.xml(in = 70) (out= 47)(deflated 32%)
Installing a component
IGNORE   jmx connection info: (host=localhost, port=31387, username=admin)
IGNORE   file=/space/ramesh/lassen/binding/jms/bld/regress/testengine/testengine.jar
Install component succeeded. [
TESTENGINE_FOR_JMSBINDING
]

BUILD SUCCESSFUL
IGNORE Total time: 2 seconds
Starting JMS Test client in background
IGNORE 21388
Starting a component
IGNORE   jmx connection info: (host=localhost, port=31387, username=admin)
  name=TESTENGINE_FOR_JMSBINDING
Start component succeeded. [
TESTENGINE_FOR_JMSBINDING
]

BUILD SUCCESSFUL
IGNORE Total time: 2 seconds
JMSTesting Provider inonly with valid message
      1
JMSTesting Provider inout with valid message
      1
JMSTesting Provider inout with invalid message
      1
JMSTesting Consumer inonly with invalid message
      1
JMSTesting Consumer inout with valid message
      1
Stopping a component
IGNORE   jmx connection info: (host=localhost, port=31387, username=admin)
  name=TESTENGINE_FOR_JMSBINDING
Stop component succeeded. [
TESTENGINE_FOR_JMSBINDING
]

BUILD SUCCESSFUL
IGNORE Total time: 1 second
Shutting down a component
IGNORE   jmx connection info: (host=localhost, port=31387, username=admin)
  name=TESTENGINE_FOR_JMSBINDING
Shutdown component succeeded. [
TESTENGINE_FOR_JMSBINDING
]

BUILD SUCCESSFUL
IGNORE Total time: 1 second
Uninstalling a component
IGNORE   jmx connection info: (host=localhost, port=31387, username=admin)
  name=TESTENGINE_FOR_JMSBINDING
Uninstall component succeeded. [
TESTENGINE_FOR_JMSBINDING
]

BUILD SUCCESSFUL
IGNORE Total time: 2 seconds
IGNORE Killing the dummy client with pid 00000
Completed JMSTesting jms binding MEPs
