IGNORE asant -emacs -q -f C:/chikkala/dev/open-esb-dev/main/open-esb/install/as8/jbi/bin/jbi_admin.xml -Djbi.username=admin -Djbi.password=adminadmin -Djbi.port=5149 -Djbi.secure=true -Djbi.task.fail.on.error=false
Installing a shared library
IGNORE   jmx connection info: (host=localhost, port=5149, secure=true, username=admin, target=server )
  file=${jbi.install.file}
  name=${jbi.shared.library.name}
Install shared library failed. [
  ERROR:(UIANT2012)Name or file attribute should be specified to install a shared library.
]
BUILD SUCCESSFUL
IGNORE Total time: 0 seconds
Installing a component
IGNORE   jmx connection info: (host=localhost, port=5149, secure=true, username=admin, target=server )
  file=${jbi.install.file}
  name=${jbi.component.name}
Install component failed. [
  ERROR:(UIANT2009)Name or file attribute should be specified to install a component.
]
BUILD SUCCESSFUL
IGNORE Total time: 0 seconds
Deploying a service assembly
IGNORE   jmx connection info: (host=localhost, port=5149, secure=true, username=admin, target=server )
  file=${jbi.deploy.file}
  name=${jbi.service.assembly.name}
Service assembly deployment failed. [
  ERROR:(UIANT3005)Name or file attribute should be specified to deploy a service assembly.
]
BUILD SUCCESSFUL
IGNORE Total time: 0 seconds
Installing a shared library
IGNORE   jmx connection info: (host=localhost, port=5149, secure=true, username=admin, target=server )
IGNORE   file=C:/chikkala/dev/open-esb-dev/main/open-esb/ri-clients/jbi-ant-tasks/bld/test-classes/testdata/ant-test-sns1.jar
  name=ant_test_sns1
Install shared library failed. [
  ERROR:(UIANT2011)Cannot take both name and file attributes to install a shared library.
]
BUILD SUCCESSFUL
IGNORE Total time: 0 seconds
Installing a component
IGNORE   jmx connection info: (host=localhost, port=5149, secure=true, username=admin, target=server )
IGNORE   file=C:/chikkala/dev/open-esb-dev/main/open-esb/ri-clients/jbi-ant-tasks/bld/test-classes/testdata/ant-test-binding1.jar
  name=ant_test_binding1
Install component failed. [
  ERROR:(UIANT2008)Cannot take both name and file attributes to install a component.
]
BUILD SUCCESSFUL
IGNORE Total time: 0 seconds
Deploying a service assembly
IGNORE   jmx connection info: (host=localhost, port=5149, secure=true, username=admin, target=server )
IGNORE   file=C:/chikkala/dev/open-esb-dev/main/open-esb/ri-clients/jbi-ant-tasks/bld/test-classes/testdata/ant-test-au1.zip
  name=ant_test_assembly_unit_1
Service assembly deployment failed. [
  ERROR:(UIANT3004)Cannot take both name and file attributes to deploy a service assembly.
]
BUILD SUCCESSFUL
IGNORE Total time: 0 seconds
