ui00016 : jbi-list-statistics Ant Task.
prepare the artifacts

BUILD SUCCESSFUL
IGNORE Total time: 0 seconds
Starting a component
IGNORE   jmx connection info: (host=localhost, port=4849, secure=false, username=admin, target=server )
  name=sun-http-binding
Start component succeeded. [
sun-http-binding
]

BUILD SUCCESSFUL
IGNORE Total time: 0 seconds
Deploying a service assembly
IGNORE   jmx connection info: (host=localhost, port=4849, secure=false, username=admin, target=server )
IGNORE  file=C:/cygwin/home/yz72237/build/open-esb/ri-clients/jbi-ant-tasks/bld/regress/dist/ping-sa.jar
Service assembly deployment succeeded. [
PingApp
]

BUILD SUCCESSFUL
IGNORE Total time: 1 second
Starting a service assembly
IGNORE   jmx connection info: (host=localhost, port=4849, secure=false, username=admin, target=server )
  name=PingApp
Start service assembly succeeded. [
PingApp
]

BUILD SUCCESSFUL
IGNORE Total time: 1 second
Installing a component
IGNORE   jmx connection info: (host=localhost, port=4849, secure=false, username=admin, target=server )
IGNORE  file=C:/cygwin/home/yz72237/build/open-esb/ri-clients/jbi-ant-tasks/bld/regress/dist/simpletestengine.jar
Install component succeeded. [
SimpleTestEngine
]

BUILD SUCCESSFUL
IGNORE Total time: 1 second
Starting a component
IGNORE   jmx connection info: (host=localhost, port=4849, secure=false, username=admin, target=server )
  name=SimpleTestEngine
Start component succeeded. [
SimpleTestEngine
]

BUILD SUCCESSFUL
IGNORE Total time: 0 seconds
Listing endpoint statistics data
IGNORE   jmx connection info: (host=localhost, port=4849, secure=false, username=admin, target=server )
================================================
List NMR stats on target "server"
================================================
server NMR statistics
------------------------------------------------
Total Count of Active Channels: 2
sun-http-binding
SimpleTestEngine

Total Count of Active Endpoints: 3
http://www.sun.com/jbi/qos/redelivery,sun-http-binding,redeliveryLoopback
http://ping,PingService,PingPort
http://ping,PingService,ConsumingPingPort


================================================
List framework stats on target "server"
================================================
server framework statistics
------------------------------------------------
IGNORE Framework Uptime: 0 days  0 hours  16 minutes 25.390 seconds
IGNORE Framework Startup time (ms): 2641

================================================
List component stats on target "server"
================================================
Statistics for Component: sun-http-binding
------------------------------------------------
IGNORE Component Up Time: 0 days  0 hours   0 minutes 7.344 seconds
IGNORE No. of activated endpoints: 2
IGNORE No. of received requests: 3
IGNORE No. of sent requests: 0
IGNORE No. of received replies: 0
IGNORE No. of sent replies: 0
IGNORE No. of received DONEs: 0
IGNORE No. of sent DONEs: 3
IGNORE No. of received faults: 0
IGNORE No. of sent faults: 0
IGNORE No. of received errors: 0
IGNORE No. of sent errors: 0
IGNORE No. of completed exchanges: 0
IGNORE No. of active exchanges: 3
IGNORE No. of error exchanges: 0

Message Exchange Statistics:

IGNORE  Timing statistics are disabled.  Some timing information
IGNORE  may not be displayed.  To assure all timing information
IGNORE  is displayed, set the runtime configuration  property
IGNORE  "msgScvTimingStatisticsEnabled" to true.

Component Provided Statistics:

	ConsumingEndpoints:
	PerformanceMeasurementCategories:
		Normalization
		Denormalization
	ProvisioningEndpoints:
		http://ping,PingService,PingPort,Provider
	ShortDisplayName: sun-http-binding
	TotalDone: 0
	TotalErrors: 0
	TotalReceivedDones: 0
	TotalReceivedErrors: 0
	TotalReceivedReplies: 0
	TotalReceivedRequests: 1
	TotalReplies: 1
	TotalRequests: 1
	TotalSentDones: 0
	TotalSentErrors: 0
	TotalSentReplies: 1
	TotalSentRequests: 0


Statistics for Component: SimpleTestEngine
------------------------------------------------
IGNORE Component Up Time: 0 days  0 hours   0 minutes 1.438 seconds
IGNORE No. of activated endpoints: 0
IGNORE No. of received requests: 0
IGNORE No. of sent requests: 1
IGNORE No. of received replies: 0
IGNORE No. of sent replies: 0
IGNORE No. of received DONEs: 1
IGNORE No. of sent DONEs: 0
IGNORE No. of received faults: 0
IGNORE No. of sent faults: 0
IGNORE No. of received errors: 0
IGNORE No. of sent errors: 0
IGNORE No. of completed exchanges: 0
IGNORE No. of active exchanges: 1
IGNORE No. of error exchanges: 0

Message Exchange Statistics:

  Timing statistics are disabled.  Some timing information
  may not be displayed.  To assure all timing information
  is displayed, set the runtime configuration  property
  "msgScvTimingStatisticsEnabled" to true.


================================================
List service assembly stats on target "server"
================================================
Statistics for Service Assembly: PingApp
------------------------------------------------
IGNORE Last Startup Time: Wed Mar 12 18:30:10 PDT 2008
IGNORE Avg. Startup Time (ms): 93

Statistics for Service Unit: PingApp-sun-http-binding
IGNORE 	Avg. Startup Time (ms): 62



================================================
List endpoint stats on target "server"
================================================
Statistics for Provider Endpoint: http://www.sun.com/jbi/qos/redelivery,sun-http-binding,redeliveryLoopback
------------------------------------------------
IGNORE Activation time (ms): Wed Mar 12 18:24:22 PDT 2008
IGNORE Up Time: 0 days  0 hours   5 minutes 52.485 seconds
IGNORE No. of active exchanges: 0
IGNORE No. of received requests: 0
IGNORE No. of sent replies: 0
IGNORE No. of received DONEs: 0
IGNORE No. of sent DONEs: 0
IGNORE No. of received faults: 0
IGNORE No. of sent faults: 0
IGNORE No. of received errors: 0
IGNORE No. of sent errors: 0

Message Exchange Statistics:

  Timing statistics are disabled.  Some timing information
  may not be displayed.  To assure all timing information
  is displayed, set the runtime configuration  property
  "msgScvTimingStatisticsEnabled" to true.


Statistics for Provider Endpoint: http://ping,PingService,PingPort
------------------------------------------------
IGNORE Activation time (ms): Wed Mar 12 18:30:10 PDT 2008
IGNORE Up Time: 0 days  0 hours   0 minutes 4.484 seconds
IGNORE No. of active exchanges: 0
IGNORE No. of received requests: 0
IGNORE No. of sent replies: 0
IGNORE No. of received DONEs: 0
IGNORE No. of sent DONEs: 0
IGNORE No. of received faults: 0
IGNORE No. of sent faults: 0
IGNORE No. of received errors: 0
IGNORE No. of sent errors: 0

Message Exchange Statistics:

  Timing statistics are disabled.  Some timing information
  may not be displayed.  To assure all timing information
  is displayed, set the runtime configuration  property
  "msgScvTimingStatisticsEnabled" to true.

Performance instrumentation Data:

IGNORE act: 0
IGNORE average (ms): 186.79059300000003
IGNORE average' (ms): 0.09302850000000262
IGNORE first (ms): 560.185722
IGNORE last-first (ms): 111705.24857200001
IGNORE load: 0.005016521468408751
IGNORE median (ms): 0.13454342644059433
IGNORE n: 3
source: com.sun.jbi.httpsoapbc.OutboundMessageProcessor
sub topic: Denormalization
IGNORE throughput (s-1): 0.02685639243328308
topic: http://ping,PingService,PingPort,Provider
IGNORE total time (ms): 560.3717790000001



Statistics for Consumer Endpoint: http://ping,PingService,ConsumingPingPort
------------------------------------------------
IGNORE No. of sent requests: 0
IGNORE No. of received replies: 0
IGNORE No. of received DONEs: 0
IGNORE No. of sent DONEs: 0
IGNORE No. of received faults: 0
IGNORE No. of sent faults: 0
IGNORE No. of received errors: 0
IGNORE No. of sent errors: 2

Message Exchange Statistics:

  Timing statistics are disabled.  Some timing information
  may not be displayed.  To assure all timing information
  is displayed, set the runtime configuration  property
  "msgScvTimingStatisticsEnabled" to true.

Performance instrumentation Data:




BUILD SUCCESSFUL
IGNORE Total time: 1 second
Stopping a service assembly
IGNORE   jmx connection info: (host=localhost, port=4849, secure=false, username=admin, target=server )
  name=PingApp
Stop service assembly succeeded. [
PingApp
]

BUILD SUCCESSFUL
IGNORE Total time: 1 second
Shutting down a service assembly
IGNORE   jmx connection info: (host=localhost, port=4849, secure=false, username=admin, target=server )
  name=PingApp
Shutdown service assembly succeeded. [
PingApp
]

BUILD SUCCESSFUL
IGNORE Total time: 1 second
Undeploying a service assembly
IGNORE   jmx connection info: (host=localhost, port=4849, secure=false, username=admin, target=server )
  name=PingApp
Service assembly undeployment succeeded. [
PingApp
]

BUILD SUCCESSFUL
IGNORE Total time: 1 second
Shutting down a component
IGNORE   jmx connection info: (host=localhost, port=4849, secure=false, username=admin, target=server )
  name=sun-http-binding
Shutdown component succeeded. [
sun-http-binding
]

BUILD SUCCESSFUL
IGNORE Total time: 0 seconds
Stopping a component
IGNORE   jmx connection info: (host=localhost, port=4849, secure=false, username=admin, target=server )
  name=SimpleTestEngine
Stop component succeeded. [
SimpleTestEngine
]

BUILD SUCCESSFUL
IGNORE Total time: 0 seconds
Shutting down a component
IGNORE   jmx connection info: (host=localhost, port=4849, secure=false, username=admin, target=server )
  name=SimpleTestEngine
Shutdown component succeeded. [
SimpleTestEngine
]

BUILD SUCCESSFUL
IGNORE Total time: 0 seconds
Uninstalling a component
IGNORE   jmx connection info: (host=localhost, port=4849, secure=false, username=admin, target=server )
  name=SimpleTestEngine
Uninstall component succeeded. [
SimpleTestEngine
]

BUILD SUCCESSFUL
IGNORE Total time: 2 seconds
Starting a component
IGNORE jmx connection info: (host=localhost, port=6249, secure=false, username=admin, target=ant_cluster )
  name=sun-http-binding
Start component succeeded. [
sun-http-binding
]

BUILD SUCCESSFUL
IGNORE Total time: 0 seconds
Deploying a service assembly
IGNORE   jmx connection info: (host=localhost, port=4849, secure=false, username=admin, target=ant_cluster )
IGNORE  file=C:/cygwin/home/yz72237/build/open-esb/ri-clients/jbi-ant-tasks/bld/regress/dist/ping-sa.jar
Service assembly deployment succeeded. [
PingApp
]

BUILD SUCCESSFUL
IGNORE Total time: 1 second
Starting a service assembly
IGNORE   jmx connection info: (host=localhost, port=4849, secure=false, username=admin, target=ant_cluster )
  name=PingApp
Start service assembly succeeded. [
PingApp
]

BUILD SUCCESSFUL
IGNORE Total time: 1 second
Installing a component
IGNORE   jmx connection info: (host=localhost, port=4849, secure=false, username=admin, target=ant_cluster )
IGNORE  file=C:/cygwin/home/yz72237/build/open-esb/ri-clients/jbi-ant-tasks/bld/regress/dist/simpletestengine.jar
Install component succeeded. [
SimpleTestEngine
]

BUILD SUCCESSFUL
IGNORE Total time: 1 second
Starting a component
IGNORE   jmx connection info: (host=localhost, port=4849, secure=false, username=admin, target=ant_cluster )
  name=SimpleTestEngine
Start component succeeded. [
SimpleTestEngine
]

BUILD SUCCESSFUL
IGNORE Total time: 0 seconds
Listing endpoint statistics data
IGNORE   jmx connection info: (host=localhost, port=4849, secure=false, username=admin, target=ant_cluster )
================================================
List NMR stats on target "ant_cluster"
================================================
instance11 NMR statistics
------------------------------------------------
Total Count of Active Channels: 2
sun-http-binding
SimpleTestEngine

Total Count of Active Endpoints: 3
http://www.sun.com/jbi/qos/redelivery,sun-http-binding,redeliveryLoopback
http://ping,PingService,PingPort
http://ping,PingService,ConsumingPingPort


================================================
List framework stats on target "ant_cluster"
================================================
instance11 framework statistics
------------------------------------------------
IGNORE Framework Uptime: 0 days  0 hours  13 minutes 12.734 seconds
IGNORE Framework Startup time (ms): 3110

================================================
List component stats on target "ant_cluster"
================================================
Statistics for Component: sun-http-binding
------------------------------------------------
IGNORE Component Up Time: 0 days  0 hours   0 minutes 7.813 seconds
IGNORE No. of activated endpoints: 2
IGNORE No. of received requests: 3
IGNORE No. of sent requests: 0
IGNORE No. of received replies: 0
IGNORE No. of sent replies: 0
IGNORE No. of received DONEs: 0
IGNORE No. of sent DONEs: 3
IGNORE No. of received faults: 0
IGNORE No. of sent faults: 0
IGNORE No. of received errors: 0
IGNORE No. of sent errors: 0
IGNORE No. of completed exchanges: 0
IGNORE No. of active exchanges: 3
IGNORE No. of error exchanges: 0

Message Exchange Statistics:

IGNORE Timing statistics are disabled.  Some timing information
IGNORE may not be displayed.  To assure all timing information
IGNORE is displayed, set the runtime configuration  property
IGNORE "msgScvTimingStatisticsEnabled" to true.

Component Provided Statistics:

	ConsumingEndpoints:
	PerformanceMeasurementCategories:
		Normalization
		Denormalization
	ProvisioningEndpoints:
		http://ping,PingService,PingPort,Provider
	ShortDisplayName: sun-http-binding
	TotalDone: 0
	TotalErrors: 0
	TotalReceivedDones: 0
	TotalReceivedErrors: 0
	TotalReceivedReplies: 0
	TotalReceivedRequests: 1
	TotalReplies: 1
	TotalRequests: 1
	TotalSentDones: 0
	TotalSentErrors: 0
	TotalSentReplies: 1
	TotalSentRequests: 0


Statistics for Component: SimpleTestEngine
------------------------------------------------
IGNORE Component Up Time: 0 days  0 hours   0 minutes 1.500 seconds
IGNORE No. of activated endpoints: 0
IGNORE No. of received requests: 0
IGNORE No. of sent requests: 1
IGNORE No. of received replies: 0
IGNORE No. of sent replies: 0
IGNORE No. of received DONEs: 1
IGNORE No. of sent DONEs: 0
IGNORE No. of received faults: 0
IGNORE No. of sent faults: 0
IGNORE No. of received errors: 0
IGNORE No. of sent errors: 0
IGNORE No. of completed exchanges: 0
IGNORE No. of active exchanges: 1
IGNORE No. of error exchanges: 0

Message Exchange Statistics:

  Timing statistics are disabled.  Some timing information
  may not be displayed.  To assure all timing information
  is displayed, set the runtime configuration  property
  "msgScvTimingStatisticsEnabled" to true.


================================================
List service assembly stats on target "ant_cluster"
================================================
Statistics for Service Assembly: PingApp
------------------------------------------------
IGNORE Last Startup Time: Wed Mar 12 18:30:28 PDT 2008
IGNORE Avg. Startup Time (ms): 78

Statistics for Service Unit: PingApp-sun-http-binding
IGNORE 	Avg. Startup Time (ms): 46



================================================
List endpoint stats on target "ant_cluster"
================================================
Statistics for Provider Endpoint: http://www.sun.com/jbi/qos/redelivery,sun-http-binding,redeliveryLoopback
------------------------------------------------
IGNORE Activation time (ms): Wed Mar 12 18:24:23 PDT 2008
IGNORE Up Time: 0 days  0 hours   6 minutes 9.641 seconds
IGNORE No. of active exchanges: 0
IGNORE No. of received requests: 0
IGNORE No. of sent replies: 0
IGNORE No. of received DONEs: 0
IGNORE No. of sent DONEs: 0
IGNORE No. of received faults: 0
IGNORE No. of sent faults: 0
IGNORE No. of received errors: 0
IGNORE No. of sent errors: 0

Message Exchange Statistics:

  Timing statistics are disabled.  Some timing information
  may not be displayed.  To assure all timing information
  is displayed, set the runtime configuration  property
  "msgScvTimingStatisticsEnabled" to true.


Statistics for Provider Endpoint: http://ping,PingService,PingPort
------------------------------------------------
IGNORE Activation time (ms): Wed Mar 12 18:30:28 PDT 2008
IGNORE Up Time: 0 days  0 hours   0 minutes 4.875 seconds
IGNORE No. of active exchanges: 0
IGNORE No. of received requests: 0
IGNORE No. of sent replies: 0
IGNORE No. of received DONEs: 0
IGNORE No. of sent DONEs: 0
IGNORE No. of received faults: 0
IGNORE No. of sent faults: 0
IGNORE No. of received errors: 0
IGNORE No. of sent errors: 0

Message Exchange Statistics:

  Timing statistics are disabled.  Some timing information
  may not be displayed.  To assure all timing information
  is displayed, set the runtime configuration  property
  "msgScvTimingStatisticsEnabled" to true.

Performance instrumentation Data:

IGNORE act: 0
IGNORE average (ms): 6.344940666666667
IGNORE average' (ms): 0.09121300000000154
IGNORE first (ms): 18.852396
IGNORE last-first (ms): 94127.822112
IGNORE load: 2.0222312142047666E-4
IGNORE median (ms): 0.13454342644059433
IGNORE n: 3
source: com.sun.jbi.httpsoapbc.OutboundMessageProcessor
sub topic: Denormalization
IGNORE throughput (s-1): 0.03187155446297718
topic: http://ping,PingService,PingPort,Provider
IGNORE total time (ms): 19.034822000000002



Statistics for Consumer Endpoint: http://ping,PingService,ConsumingPingPort
------------------------------------------------
IGNORE No. of sent requests: 0
IGNORE No. of received replies: 0
IGNORE No. of received DONEs: 0
IGNORE No. of sent DONEs: 0
IGNORE No. of received faults: 0
IGNORE No. of sent faults: 0
IGNORE No. of received errors: 0
IGNORE No. of sent errors: 2

Message Exchange Statistics:

  Timing statistics are disabled.  Some timing information
  may not be displayed.  To assure all timing information
  is displayed, set the runtime configuration  property
  "msgScvTimingStatisticsEnabled" to true.

Performance instrumentation Data:




BUILD SUCCESSFUL
IGNORE Total time: 1 second
Stopping a service assembly
IGNORE   jmx connection info: (host=localhost, port=4849, secure=false, username=admin, target=ant_cluster )
  name=PingApp
Stop service assembly succeeded. [
PingApp
]

BUILD SUCCESSFUL
IGNORE Total time: 1 second
Shutting down a service assembly
IGNORE   jmx connection info: (host=localhost, port=4849, secure=false, username=admin, target=ant_cluster )
  name=PingApp
Shutdown service assembly succeeded. [
PingApp
]

BUILD SUCCESSFUL
IGNORE Total time: 1 second
Undeploying a service assembly
IGNORE   jmx connection info: (host=localhost, port=4849, secure=false, username=admin, target=ant_cluster )
  name=PingApp
Service assembly undeployment succeeded. [
PingApp
]

BUILD SUCCESSFUL
IGNORE Total time: 1 second
Shutting down a component
IGNORE   jmx connection info: (host=localhost, port=4849, secure=false, username=admin, target=ant_cluster )
  name=sun-http-binding
Shutdown component succeeded. [
sun-http-binding
]

BUILD SUCCESSFUL
IGNORE Total time: 0 seconds
Stopping a component
IGNORE   jmx connection info: (host=localhost, port=4849, secure=false, username=admin, target=ant_cluster )
  name=SimpleTestEngine
Stop component succeeded. [
SimpleTestEngine
]

BUILD SUCCESSFUL
IGNORE Total time: 0 seconds
Shutting down a component
IGNORE   jmx connection info: (host=localhost, port=4849, secure=false, username=admin, target=ant_cluster )
  name=SimpleTestEngine
Shutdown component succeeded. [
SimpleTestEngine
]

BUILD SUCCESSFUL
IGNORE Total time: 0 seconds
Uninstalling a component
IGNORE   jmx connection info: (host=localhost, port=4849, secure=false, username=admin, target=ant_cluster )
  name=SimpleTestEngine
Uninstall component succeeded. [
SimpleTestEngine
]

BUILD SUCCESSFUL
IGNORE Total time: 1 second
Starting a component
IGNORE   jmx connection info: (host=localhost, port=4849, secure=false, username=admin, target=instance13 )
  name=sun-http-binding
Start component succeeded. [
sun-http-binding
]

BUILD SUCCESSFUL
IGNORE Total time: 0 seconds
Deploying a service assembly
IGNORE   jmx connection info: (host=localhost, port=4849, secure=false, username=admin, target=instance13 )
IGNORE  file=C:/cygwin/home/yz72237/build/open-esb/ri-clients/jbi-ant-tasks/bld/regress/dist/ping-sa.jar
Service assembly deployment succeeded. [
PingApp
]

BUILD SUCCESSFUL
IGNORE Total time: 1 second
Starting a service assembly
IGNORE   jmx connection info: (host=localhost, port=4849, secure=false, username=admin, target=instance13 )
  name=PingApp
Start service assembly succeeded. [
PingApp
]

BUILD SUCCESSFUL
IGNORE Total time: 1 second
Installing a component
IGNORE   jmx connection info: (host=localhost, port=4849, secure=false, username=admin, target=instance13 )
IGNORE  file=C:/cygwin/home/yz72237/build/open-esb/ri-clients/jbi-ant-tasks/bld/regress/dist/simpletestengine.jar
Install component succeeded. [
SimpleTestEngine
]

BUILD SUCCESSFUL
IGNORE Total time: 1 second
Starting a component
IGNORE   jmx connection info: (host=localhost, port=4849, secure=false, username=admin, target=instance13 )
  name=SimpleTestEngine
Start component succeeded. [
SimpleTestEngine
]

BUILD SUCCESSFUL
IGNORE Total time: 0 seconds
Listing endpoint statistics data
IGNORE   jmx connection info: (host=localhost, port=4849, secure=false, username=admin, target=instance13 )
================================================
List NMR stats on target "instance13"
================================================
instance13 NMR statistics
------------------------------------------------
Total Count of Active Channels: 2
sun-http-binding
SimpleTestEngine

Total Count of Active Endpoints: 3
http://www.sun.com/jbi/qos/redelivery,sun-http-binding,redeliveryLoopback
http://ping,PingService,PingPort
http://ping,PingService,ConsumingPingPort


================================================
List framework stats on target "instance13"
================================================
instance13 framework statistics
------------------------------------------------
IGNORE Framework Uptime: 0 days  0 hours  13 minutes 31.719 seconds
IGNORE Framework Startup time (ms): 5251

================================================
List component stats on target "instance13"
================================================
Statistics for Component: sun-http-binding
------------------------------------------------
IGNORE Component Up Time: 0 days  0 hours   0 minutes 7.703 seconds
IGNORE No. of activated endpoints: 2
IGNORE No. of received requests: 3
IGNORE No. of sent requests: 0
IGNORE No. of received replies: 0
IGNORE No. of sent replies: 0
IGNORE No. of received DONEs: 0
IGNORE No. of sent DONEs: 3
IGNORE No. of received faults: 0
IGNORE No. of sent faults: 0
IGNORE No. of received errors: 0
IGNORE No. of sent errors: 0
IGNORE No. of completed exchanges: 0
IGNORE No. of active exchanges: 3
IGNORE No. of error exchanges: 0

Message Exchange Statistics:

IGNORE Timing statistics are disabled.  Some timing information
IGNORE may not be displayed.  To assure all timing information
IGNORE is displayed, set the runtime configuration  property
IGNORE "msgScvTimingStatisticsEnabled" to true.

Component Provided Statistics:

	ConsumingEndpoints:
	PerformanceMeasurementCategories:
		Normalization
		Denormalization
	ProvisioningEndpoints:
		http://ping,PingService,PingPort,Provider
	ShortDisplayName: sun-http-binding
	TotalDone: 0
	TotalErrors: 0
	TotalReceivedDones: 0
	TotalReceivedErrors: 0
	TotalReceivedReplies: 0
	TotalReceivedRequests: 1
	TotalReplies: 1
	TotalRequests: 1
	TotalSentDones: 0
	TotalSentErrors: 0
	TotalSentReplies: 1
	TotalSentRequests: 0


Statistics for Component: SimpleTestEngine
------------------------------------------------
IGNORE Component Up Time: 0 days  0 hours   0 minutes 1.484 seconds
IGNORE No. of activated endpoints: 0
IGNORE No. of received requests: 0
IGNORE No. of sent requests: 1
IGNORE No. of received replies: 0
IGNORE No. of sent replies: 0
IGNORE No. of received DONEs: 1
IGNORE No. of sent DONEs: 0
IGNORE No. of received faults: 0
IGNORE No. of sent faults: 0
IGNORE No. of received errors: 0
IGNORE No. of sent errors: 0
IGNORE No. of completed exchanges: 0
IGNORE No. of active exchanges: 1
IGNORE No. of error exchanges: 0

Message Exchange Statistics:

  Timing statistics are disabled.  Some timing information
  may not be displayed.  To assure all timing information
  is displayed, set the runtime configuration  property
  "msgScvTimingStatisticsEnabled" to true.


================================================
List service assembly stats on target "instance13"
================================================
Statistics for Service Assembly: PingApp
------------------------------------------------
IGNORE Last Startup Time: Wed Mar 12 18:30:47 PDT 2008
IGNORE Avg. Startup Time (ms): 78

Statistics for Service Unit: PingApp-sun-http-binding
IGNORE 	Avg. Startup Time (ms): 47



================================================
List endpoint stats on target "instance13"
================================================
Statistics for Provider Endpoint: http://www.sun.com/jbi/qos/redelivery,sun-http-binding,redeliveryLoopback
------------------------------------------------
IGNORE Activation time (ms): Wed Mar 12 18:24:25 PDT 2008
IGNORE Up Time: 0 days  0 hours   6 minutes 27.235 seconds
IGNORE No. of active exchanges: 0
IGNORE No. of received requests: 0
IGNORE No. of sent replies: 0
IGNORE No. of received DONEs: 0
IGNORE No. of sent DONEs: 0
IGNORE No. of received faults: 0
IGNORE No. of sent faults: 0
IGNORE No. of received errors: 0
IGNORE No. of sent errors: 0

Message Exchange Statistics:

  Timing statistics are disabled.  Some timing information
  may not be displayed.  To assure all timing information
  is displayed, set the runtime configuration  property
  "msgScvTimingStatisticsEnabled" to true.


Statistics for Provider Endpoint: http://ping,PingService,PingPort
------------------------------------------------
IGNORE Activation time (ms): Wed Mar 12 18:30:47 PDT 2008
IGNORE Up Time: 0 days  0 hours   0 minutes 4.797 seconds
IGNORE No. of active exchanges: 0
IGNORE No. of received requests: 0
IGNORE No. of sent replies: 0
IGNORE No. of received DONEs: 0
IGNORE No. of sent DONEs: 0
IGNORE No. of received faults: 0
IGNORE No. of sent faults: 0
IGNORE No. of received errors: 0
IGNORE No. of sent errors: 0

Message Exchange Statistics:

  Timing statistics are disabled.  Some timing information
  may not be displayed.  To assure all timing information
  is displayed, set the runtime configuration  property
  "msgScvTimingStatisticsEnabled" to true.

Performance instrumentation Data:

IGNORE act: 0
IGNORE average (ms): 6.211217333333334
IGNORE average' (ms): 0.0927490000000013
IGNORE first (ms): 18.448154
IGNORE last-first (ms): 76801.907504
IGNORE load: 2.4261965106513663E-4
IGNORE median (ms): 0.13454342644059433
IGNORE n: 3
source: com.sun.jbi.httpsoapbc.OutboundMessageProcessor
sub topic: Denormalization
IGNORE throughput (s-1): 0.03906152981739097
topic: http://ping,PingService,PingPort,Provider
IGNORE total time (ms): 18.633652



Statistics for Consumer Endpoint: http://ping,PingService,ConsumingPingPort
------------------------------------------------
IGNORE No. of sent requests: 0
IGNORE No. of received replies: 0
IGNORE No. of received DONEs: 0
IGNORE No. of sent DONEs: 0
IGNORE No. of received faults: 0
IGNORE No. of sent faults: 0
IGNORE No. of received errors: 0
IGNORE No. of sent errors: 2

Message Exchange Statistics:

  Timing statistics are disabled.  Some timing information
  may not be displayed.  To assure all timing information
  is displayed, set the runtime configuration  property
  "msgScvTimingStatisticsEnabled" to true.

Performance instrumentation Data:




BUILD SUCCESSFUL
IGNORE Total time: 1 second
Stopping a service assembly
IGNORE   jmx connection info: (host=localhost, port=4849, secure=false, username=admin, target=instance13 )
  name=PingApp
Stop service assembly succeeded. [
PingApp
]

BUILD SUCCESSFUL
IGNORE Total time: 1 second
Shutting down a service assembly
IGNORE   jmx connection info: (host=localhost, port=4849, secure=false, username=admin, target=instance13 )
  name=PingApp
Shutdown service assembly succeeded. [
PingApp
]

BUILD SUCCESSFUL
IGNORE Total time: 1 second
Undeploying a service assembly
IGNORE   jmx connection info: (host=localhost, port=4849, secure=false, username=admin, target=instance13 )
  name=PingApp
Service assembly undeployment succeeded. [
PingApp
]

BUILD SUCCESSFUL
IGNORE Total time: 1 second
Shutting down a component
IGNORE   jmx connection info: (host=localhost, port=4849, secure=false, username=admin, target=instance13 )
  name=sun-http-binding
Shutdown component succeeded. [
sun-http-binding
]

BUILD SUCCESSFUL
IGNORE Total time: 0 seconds
Stopping a component
IGNORE   jmx connection info: (host=localhost, port=4849, secure=false, username=admin, target=instance13 )
  name=SimpleTestEngine
Stop component succeeded. [
SimpleTestEngine
]

BUILD SUCCESSFUL
IGNORE Total time: 0 seconds
Shutting down a component
IGNORE   jmx connection info: (host=localhost, port=4849, secure=false, username=admin, target=instance13 )
  name=SimpleTestEngine
Shutdown component succeeded. [
SimpleTestEngine
]

BUILD SUCCESSFUL
IGNORE Total time: 0 seconds
Uninstalling a component
IGNORE   jmx connection info: (host=localhost, port=4849, secure=false, username=admin, target=instance13 )
  name=SimpleTestEngine
Uninstall component succeeded. [
SimpleTestEngine
]

BUILD SUCCESSFUL
IGNORE Total time: 1 second
