Building ant-test-sns1.jar
Building ant-test-sns2.jar
Building ant-test-binding1.jar
Building ant-test-binding2.jar
Building ant-test-engine1.jar
Building ant-test-engine2.jar
Building ant-test-binding1-asa1.zip
Building ant-test-engine1-asa1.zip
Building ant-test-au1.zip
Building ant-test-engine1-asa2.zip
Building ant-test-au2.zip
Building ant-test-engine2-asa1.zip
Building ant-test-au3.zip
Done Building the Components
BUILD SUCCESSFUL
IGNORE Total time: 1 second
BUILD SUCCESSFUL
IGNORE Total time: 1 second
Testing xml output attribute
Install shared library succeeded. [
ant_test_sns1
]
Install component succeeded. [
ant_test_binding1
]
Install component succeeded. [
ant_test_engine1
]
Start component succeeded. [
ant_test_binding1
]
Start component succeeded. [
ant_test_engine1
]
Service assembly deployment succeeded. [
ant_test_assembly_unit_1
]
Service assembly undeployment succeeded. [
ant_test_assembly_unit_1
]
Stop component succeeded. [
ant_test_binding1
]
Shutdown component succeeded. [
ant_test_binding1
]
Uninstall component succeeded. [
ant_test_binding1
]
Stop component succeeded. [
ant_test_engine1
]
Shutdown component succeeded. [
ant_test_engine1
]
Uninstall component succeeded. [
ant_test_engine1
]
Uninstall shared library succeeded. [
ant_test_sns1
]
BUILD SUCCESSFUL
IGNORE Total time: 3 seconds
########### Testing all list options ############
Install shared library succeeded. [
ant_test_sns1
]
Install shared library succeeded. [
ant_test_sns2
]
Install component succeeded. [
ant_test_binding1
]
Install component succeeded. [
ant_test_binding2
]
Install component succeeded. [
ant_test_engine1
]
Install component succeeded. [
ant_test_engine2
]
Start component succeeded. [
ant_test_binding1
]
Start component succeeded. [
ant_test_binding2
]
Start component succeeded. [
ant_test_engine1
]
Service assembly deployment succeeded. [
ant_test_assembly_unit_1
]
Start service assembly succeeded. [
ant_test_assembly_unit_1
]
######################
######### Testing list tasks with no options
######################
============================================================
  List of Shared Libraries for Target "server"
============================================================
Name        : ant_test_sns1
Version     : 2.0
Build Number: 091709
State       : Installed
Description : This is a ant test shared namespace shared 
                between ant_test_engine1 and ant_test_binding1
------------------------------------------------------------
Name        : ant_test_sns2
Version     : 3.0
Build Number: 091709a
State       : Installed
Description : This is a ant test shared namespace 2
------------------------------------------------------------
Name        : sun-wsdl-library
State       : Installed
Description : This library provides WSDL 1.1/2.0 parsing support and message-wrapping utilities used to send WSDL 1.1-defined messages over the Normalized Message Router (NMR).
------------------------------------------------------------
============================================================
  List of Binding Components for Target "server"
============================================================
Name        : ant_test_binding1
Version     : 1.0
Build Number: 080809
State       : Started
Description : ant test binding with shared namespace.
------------------------------------------------------------
Name        : ant_test_binding2
State       : Started
Description : ant test binding 2 without shared libraries dependency.
------------------------------------------------------------
Name        : sun-http-binding
State       : Shutdown
Description : HTTP binding component. Provides message processing capabilities over HTTP protocol in a JBI 1.0 compliant environment.
------------------------------------------------------------
============================================================
  List of Service Engines for Target "server"
============================================================
Name        : ant_test_engine1
Version     : 1.0
Build Number: 080809
State       : Started
Description : ant test engine with shared namespace.
------------------------------------------------------------
Name        : ant_test_engine2
State       : Shutdown
Description : ant test engine2 without shared namespace.
------------------------------------------------------------
Name        : sun-javaee-engine
State       : Shutdown
Description : Java Enterprise Edition Service Engine
------------------------------------------------------------
============================================================
  List of Service Assemblies for Target "server"
============================================================
Name       : ant_test_assembly_unit_1
State      : Started
Description: 
            This is an Ant Test Assembly Unit which deploys the sub assemblies
            to ant test engine and binding.
            
Service units in this service assembly [2]
  Service unit : ant_test_binding_1_asa1
    State      : Started
    Deployed on: ant_test_binding1
    Description: 
                This is an ASA that will be deployed 
                to the ant test binding1
                
  Service unit : ant_test_engine_1_asa1
    State      : Started
    Deployed on: ant_test_engine1
    Description: 
                    This is an ASA that will be deployed 
                    to the ant test engine1
                
------------------------------------------------------------
######################
######### Testing single info ( show )  
######################
============================================================
  List of Shared Libraries for Target "server"
============================================================
Name        : ant_test_sns1
Version     : 2.0
Build Number: 091709
State       : Installed
Description : This is a ant test shared namespace shared 
                between ant_test_engine1 and ant_test_binding1
------------------------------------------------------------
============================================================
  List of Binding Components for Target "server"
============================================================
Name        : ant_test_binding1
Version     : 1.0
Build Number: 080809
State       : Started
Description : ant test binding with shared namespace.
------------------------------------------------------------
============================================================
  List of Service Engines for Target "server"
============================================================
Name        : ant_test_engine1
Version     : 1.0
Build Number: 080809
State       : Started
Description : ant test engine with shared namespace.
------------------------------------------------------------
============================================================
  List of Service Assemblies for Target "server"
============================================================
Name       : ant_test_assembly_unit_1
State      : Started
Description: 
            This is an Ant Test Assembly Unit which deploys the sub assemblies
            to ant test engine and binding.
            
Service units in this service assembly [2]
  Service unit : ant_test_binding_1_asa1
    State      : Started
    Deployed on: ant_test_binding1
    Description: 
                This is an ASA that will be deployed 
                to the ant test binding1
                
  Service unit : ant_test_engine_1_asa1
    State      : Started
    Deployed on: ant_test_engine1
    Description: 
                    This is an ASA that will be deployed 
                    to the ant test engine1
                
------------------------------------------------------------
######################
######### Testing State options 
######################
============================================================
  List of Binding Components for Target "server"
============================================================
Name        : ant_test_binding1
Version     : 1.0
Build Number: 080809
State       : Started
Description : ant test binding with shared namespace.
------------------------------------------------------------
Name        : ant_test_binding2
State       : Started
Description : ant test binding 2 without shared libraries dependency.
------------------------------------------------------------
============================================================
  List of Binding Components for Target "server"
============================================================
No Binding Components were found for the specified query.
------------------------------------------------------------
============================================================
  List of Binding Components for Target "server"
============================================================
Name        : sun-http-binding
State       : Shutdown
Description : HTTP binding component. Provides message processing capabilities over HTTP protocol in a JBI 1.0 compliant environment.
------------------------------------------------------------
============================================================
  List of Service Engines for Target "server"
============================================================
Name        : ant_test_engine1
Version     : 1.0
Build Number: 080809
State       : Started
Description : ant test engine with shared namespace.
------------------------------------------------------------
============================================================
  List of Service Engines for Target "server"
============================================================
No Service Engines were found for the specified query.
------------------------------------------------------------
============================================================
  List of Service Engines for Target "server"
============================================================
Name        : ant_test_engine2
State       : Shutdown
Description : ant test engine2 without shared namespace.
------------------------------------------------------------
Name        : sun-javaee-engine
State       : Shutdown
Description : Java Enterprise Edition Service Engine
------------------------------------------------------------
============================================================
  List of Service Assemblies for Target "server"
============================================================
Name       : ant_test_assembly_unit_1
State      : Started
Description: 
            This is an Ant Test Assembly Unit which deploys the sub assemblies
            to ant test engine and binding.
            
Service units in this service assembly [2]
  Service unit : ant_test_binding_1_asa1
    State      : Started
    Deployed on: ant_test_binding1
    Description: 
                This is an ASA that will be deployed 
                to the ant test binding1
                
  Service unit : ant_test_engine_1_asa1
    State      : Started
    Deployed on: ant_test_engine1
    Description: 
                    This is an ASA that will be deployed 
                    to the ant test engine1
                
------------------------------------------------------------
============================================================
  List of Service Assemblies for Target "server"
============================================================
No Service Assemblies were found for the specified query.
------------------------------------------------------------
============================================================
  List of Service Assemblies for Target "server"
============================================================
No Service Assemblies were found for the specified query.
------------------------------------------------------------
######################
######### Testing component name option for shared library 
######################
============================================================
  List of Shared Libraries for Target "server"
============================================================
Name        : ant_test_sns1
Version     : 2.0
Build Number: 091709
State       : Installed
Description : This is a ant test shared namespace shared 
                between ant_test_engine1 and ant_test_binding1
------------------------------------------------------------
============================================================
  List of Shared Libraries for Target "server"
============================================================
No Shared Libraries were found for the specified query.
------------------------------------------------------------
List shared libraries failed. [
  ERROR:(UICMN2801)Component name unknon_id_for_jbi_runtime does not exist in the JBI Runtime.
]
######################
######### Testing component name option for service assembly 
######################
============================================================
  List of Service Assemblies for Target "server"
============================================================
Name       : ant_test_assembly_unit_1
State      : Started
Description: 
            This is an Ant Test Assembly Unit which deploys the sub assemblies
            to ant test engine and binding.
            
Service units in this service assembly [2]
  Service unit : ant_test_binding_1_asa1
    State      : Started
    Deployed on: ant_test_binding1
    Description: 
                This is an ASA that will be deployed 
                to the ant test binding1
                
  Service unit : ant_test_engine_1_asa1
    State      : Started
    Deployed on: ant_test_engine1
    Description: 
                    This is an ASA that will be deployed 
                    to the ant test engine1
                
------------------------------------------------------------
============================================================
  List of Service Assemblies for Target "server"
============================================================
No Service Assemblies were found for the specified query.
------------------------------------------------------------
List service assemblies failed. [
  ERROR:(UICMN2801)Component name unknon_id_for_jbi_runtime does not exist in the JBI Runtime.
]
######################
######### Testing shared library option for components 
######################
============================================================
  List of Binding Components for Target "server"
============================================================
Name        : ant_test_binding1
Version     : 1.0
Build Number: 080809
State       : Started
Description : ant test binding with shared namespace.
------------------------------------------------------------
============================================================
  List of Binding Components for Target "server"
============================================================
No Binding Components were found for the specified query.
------------------------------------------------------------
============================================================
  List of Service Engines for Target "server"
============================================================
Name        : ant_test_engine1
Version     : 1.0
Build Number: 080809
State       : Started
Description : ant test engine with shared namespace.
------------------------------------------------------------
============================================================
  List of Service Engines for Target "server"
============================================================
No Service Engines were found for the specified query.
------------------------------------------------------------
######################
######### Testing service assembly  option for components 
######################
============================================================
  List of Binding Components for Target "server"
============================================================
Name        : ant_test_binding1
Version     : 1.0
Build Number: 080809
State       : Started
Description : ant test binding with shared namespace.
------------------------------------------------------------
============================================================
  List of Binding Components for Target "server"
============================================================
No Binding Components were found for the specified query.
------------------------------------------------------------
============================================================
  List of Service Engines for Target "server"
============================================================
Name        : ant_test_engine1
Version     : 1.0
Build Number: 080809
State       : Started
Description : ant test engine with shared namespace.
------------------------------------------------------------
============================================================
  List of Service Engines for Target "server"
============================================================
No Service Engines were found for the specified query.
------------------------------------------------------------
Stop component succeeded. [
ant_test_binding2
]
Stop service assembly succeeded. [
ant_test_assembly_unit_1
]
######################
######### Testing State options 
######################
============================================================
  List of Binding Components for Target "server"
============================================================
Name        : ant_test_binding1
Version     : 1.0
Build Number: 080809
State       : Started
Description : ant test binding with shared namespace.
------------------------------------------------------------
============================================================
  List of Binding Components for Target "server"
============================================================
Name        : ant_test_binding2
State       : Stopped
Description : ant test binding 2 without shared libraries dependency.
------------------------------------------------------------
============================================================
  List of Binding Components for Target "server"
============================================================
Name        : sun-http-binding
State       : Shutdown
Description : HTTP binding component. Provides message processing capabilities over HTTP protocol in a JBI 1.0 compliant environment.
------------------------------------------------------------
============================================================
  List of Service Engines for Target "server"
============================================================
Name        : ant_test_engine1
Version     : 1.0
Build Number: 080809
State       : Started
Description : ant test engine with shared namespace.
------------------------------------------------------------
============================================================
  List of Service Engines for Target "server"
============================================================
No Service Engines were found for the specified query.
------------------------------------------------------------
============================================================
  List of Service Engines for Target "server"
============================================================
Name        : ant_test_engine2
State       : Shutdown
Description : ant test engine2 without shared namespace.
------------------------------------------------------------
Name        : sun-javaee-engine
State       : Shutdown
Description : Java Enterprise Edition Service Engine
------------------------------------------------------------
============================================================
  List of Service Assemblies for Target "server"
============================================================
No Service Assemblies were found for the specified query.
------------------------------------------------------------
============================================================
  List of Service Assemblies for Target "server"
============================================================
Name       : ant_test_assembly_unit_1
State      : Stopped
Description: 
            This is an Ant Test Assembly Unit which deploys the sub assemblies
            to ant test engine and binding.
            
Service units in this service assembly [2]
  Service unit : ant_test_binding_1_asa1
    State      : Stopped
    Deployed on: ant_test_binding1
    Description: 
                This is an ASA that will be deployed 
                to the ant test binding1
                
  Service unit : ant_test_engine_1_asa1
    State      : Stopped
    Deployed on: ant_test_engine1
    Description: 
                    This is an ASA that will be deployed 
                    to the ant test engine1
                
------------------------------------------------------------
============================================================
  List of Service Assemblies for Target "server"
============================================================
No Service Assemblies were found for the specified query.
------------------------------------------------------------
Shutdown component succeeded. [
ant_test_binding2
]
Shutdown service assembly succeeded. [
ant_test_assembly_unit_1
]
######################
######### Testing State options 
######################
============================================================
  List of Binding Components for Target "server"
============================================================
Name        : ant_test_binding1
Version     : 1.0
Build Number: 080809
State       : Started
Description : ant test binding with shared namespace.
------------------------------------------------------------
============================================================
  List of Binding Components for Target "server"
============================================================
No Binding Components were found for the specified query.
------------------------------------------------------------
============================================================
  List of Binding Components for Target "server"
============================================================
Name        : ant_test_binding2
State       : Shutdown
Description : ant test binding 2 without shared libraries dependency.
------------------------------------------------------------
Name        : sun-http-binding
State       : Shutdown
Description : HTTP binding component. Provides message processing capabilities over HTTP protocol in a JBI 1.0 compliant environment.
------------------------------------------------------------
============================================================
  List of Service Engines for Target "server"
============================================================
Name        : ant_test_engine1
Version     : 1.0
Build Number: 080809
State       : Started
Description : ant test engine with shared namespace.
------------------------------------------------------------
============================================================
  List of Service Engines for Target "server"
============================================================
No Service Engines were found for the specified query.
------------------------------------------------------------
============================================================
  List of Service Engines for Target "server"
============================================================
Name        : ant_test_engine2
State       : Shutdown
Description : ant test engine2 without shared namespace.
------------------------------------------------------------
Name        : sun-javaee-engine
State       : Shutdown
Description : Java Enterprise Edition Service Engine
------------------------------------------------------------
============================================================
  List of Service Assemblies for Target "server"
============================================================
No Service Assemblies were found for the specified query.
------------------------------------------------------------
============================================================
  List of Service Assemblies for Target "server"
============================================================
No Service Assemblies were found for the specified query.
------------------------------------------------------------
============================================================
  List of Service Assemblies for Target "server"
============================================================
Name       : ant_test_assembly_unit_1
State      : Shutdown
Description: 
            This is an Ant Test Assembly Unit which deploys the sub assemblies
            to ant test engine and binding.
            
Service units in this service assembly [2]
  Service unit : ant_test_binding_1_asa1
    State      : Shutdown
    Deployed on: ant_test_binding1
    Description: 
                This is an ASA that will be deployed 
                to the ant test binding1
                
  Service unit : ant_test_engine_1_asa1
    State      : Shutdown
    Deployed on: ant_test_engine1
    Description: 
                    This is an ASA that will be deployed 
                    to the ant test engine1
                
------------------------------------------------------------
Service assembly undeployment succeeded. [
ant_test_assembly_unit_1
]
Shutdown component succeeded. [
ant_test_binding1
]
Shutdown component succeeded. [
ant_test_engine1
]
Uninstall component succeeded. [
ant_test_binding1
]
Uninstall component succeeded. [
ant_test_binding2
]
Uninstall component succeeded. [
ant_test_engine1
]
Uninstall component succeeded. [
ant_test_engine2
]
Uninstall shared library succeeded. [
ant_test_sns1
]
Uninstall shared library succeeded. [
ant_test_sns2
]
BUILD SUCCESSFUL
IGNORE Total time: 7 seconds
