Uninstalling a component
IGNORE  jmx connection info: (host=localhost, port=4849, secure=false, username=admin, target=server )
  name=ant_test_engine4
Uninstall component succeeded. [
ant_test_engine4
]
BUILD SUCCESSFUL
IGNORE  Total time: 1 second
Command stop-instance executed successfully.
Command delete-instance executed successfully.
Command stop-instance executed successfully.
Command delete-instance executed successfully.
Command stop-node-agent executed successfully.
Command delete-cluster executed successfully.
Command delete-node-agent executed successfully.
IGNORE Command delete-node-agent-config executed successfully.
