testname is manage00604
Installed component SunSequencingEngine.
Started component SunSequencingEngine.
Deployed service assembly sea51feb-0fc3-4ff6-9104-cfd59d2a7815.
Expect failure
  Component: SunSequencingEngine
    ERROR:(JBIMA0485)Cannot deploy service unit dseb1c56-dd7d-4e81-ab71-9483c65a3cb4 targeted for component SunSequencingEngine. A service unit with same name is already deployed in another service assembly.
CLI137 Command deploy-jbi-service-assembly failed.
Undeployed service assembly sea51feb-0fc3-4ff6-9104-cfd59d2a7815.
Stopped component SunSequencingEngine.
Shut Down component SunSequencingEngine.
Uninstalled component SunSequencingEngine.
