testname is manage00601
IGNORE JBI_HOME is C:/development/jbi/shastatools/as8/jbi
IGNORE JBI_DOMAIN_ROOT is C:/development/jbi/shastatools/as8/domains/domain1
IGNORE jbi_instance_name is domain1
IGNORE jmx.provider is service:jmx:rmi:///jndi/rmi://nullset:8686/management/rmi-jmx-connector

BUILD SUCCESSFUL
IGNORE Total time: 2 seconds
Installing a component
IGNORE   jmx connection info: (host=localhost, port=31387, username=admin)
IGNORE   file=C:/development/jbi/manage/bld/regress/dist/deploy-binding1.jar
Install component succeeded. [
manage-binding-1
]

BUILD SUCCESSFUL
IGNORE Total time: 3 seconds
Starting a component
IGNORE   jmx connection info: (host=localhost, port=31387, username=admin)
  name=manage-binding-1
Start component succeeded. [
manage-binding-1
]

BUILD SUCCESSFUL
IGNORE Total time: 1 second
Deploying a service assembly
IGNORE   jmx connection info: (host=localhost, port=31387, username=admin)
IGNORE   file=C:/development/jbi/manage/bld/regress/dist/deploy-sa.jar
Service assembly deployment succeeded. [
  WARNING:(JBIMA1422)Service Assembly manage00601-sa was deployed successfully, however some service units from the service assembly could not be deployed since their target components are not installed on the specified instance list or are missing in the system. These service unit : components are : { manage-00601-su-2 : manage-binding-2,  }
]

BUILD SUCCESSFUL
IGNORE Total time: 2 seconds
Starting a service assembly
IGNORE   jmx connection info: (host=localhost, port=31387, username=admin)
  name=manage00601-sa
Start service assembly succeeded. [
manage00601-sa
]

BUILD SUCCESSFUL
IGNORE Total time: 1 second
Stopping a service assembly
IGNORE   jmx connection info: (host=localhost, port=31387, username=admin)
  name=manage00601-sa
Stop service assembly succeeded. [
manage00601-sa
]

BUILD SUCCESSFUL
IGNORE Total time: 1 second
Shutting down a service assembly
IGNORE   jmx connection info: (host=localhost, port=31387, username=admin)
  name=manage00601-sa
Shutdown service assembly succeeded. [
manage00601-sa
]

BUILD SUCCESSFUL
IGNORE Total time: 1 second
Undeploying a service assembly
IGNORE   jmx connection info: (host=localhost, port=31387, username=admin)
  name=manage00601-sa
Service assembly undeployment succeeded. [
manage00601-sa
]

BUILD SUCCESSFUL
IGNORE Total time: 1 second
Stopping a component
IGNORE   jmx connection info: (host=localhost, port=31387, username=admin)
  name=manage-binding-1
Stop component succeeded. [
manage-binding-1
]

BUILD SUCCESSFUL
IGNORE Total time: 1 second
Shutting down a component
IGNORE   jmx connection info: (host=localhost, port=31387, username=admin)
  name=manage-binding-1
Shutdown component succeeded. [
manage-binding-1
]

BUILD SUCCESSFUL
IGNORE Total time: 1 second
Uninstalling a component
IGNORE   jmx connection info: (host=localhost, port=31387, username=admin)
  name=manage-binding-1
Uninstall component succeeded. [
manage-binding-1
]

BUILD SUCCESSFUL
IGNORE Total time: 2 seconds
