manage00002.ksh

IGNORE Evaluating /acer1/d/lassen1/manage/regress/support/binding1.xml...
JBI Type:binding-component
COMPONENT CLASS LOADER DELEGATION: parent-first
BOOTSTRAP CLASS LOADER DELEGATION: parent-first
ID: e63055a3-b393-4f54-aaad-9294ae9c5a21
DESCRIPTION: This is a sample BC.
COMPONENT CLASS: [com.sun.jbi.sample.bindings.binding1.MBeanClass]
COMPONENT CLASSPATH: [com.sun.jbi.sample.bindings.binding1]
BOOTSTRAP CLASS: com.sun.jbi.sample.bindings.binding1.bootstrapClass
BOOTSTRAP CLASSPATH: [com.sun.jbi.sample.bindings.binding1]
SHARED LIBRARY ID:[23007ada-5477-42c6-9437-59a6b344a0cd, f9ff1c0f-9389-47e4-89b7-367877759dd0]

IGNORE Evaluating /acer1/d/lassen1/manage/regress/support/engine1.xml...
JBI Type:service-engine
COMPONENT CLASS LOADER DELEGATION: parent-first
BOOTSTRAP CLASS LOADER DELEGATION: self-first
ID: 29ae7208-b07d-45c7-8662-d1389d6b2fe
DESCRIPTION: This is a sample engine.
COMPONENT CLASS: [com.sun.jbi.sample.engines.engine1.MBeanClass]
COMPONENT CLASSPATH: [com.sun.jbi.sample.engines.engine1]
BOOTSTRAP CLASS: com.sun.jbi.sample.engines.engine1.bootstrapClass
BOOTSTRAP CLASSPATH: [com.sun.jbi.sample.engines.engine1]
SHARED LIBRARY ID:[23007ada-5477-42c6-9437-59a6b344a0cd, f9ff1c0f-9389-47e4-89b7-367877759dd0]
COMPONENT DOCUMENT FRAGMENT:<foo:Configuration version="1.0">
	<foo:ThreadPool size="10"/>
	<foo:Queue1 size="50"/>
  </foo:Configuration>
IDENTIFICATION DOCUMENT FRAGMENT:<foo:TypeInfo part-number="012AB490-578FAA">
		  BPEL:2.0:XQuery:1.0:XPath:2.0:XPath:1.0
		</foo:TypeInfo>

IGNORE Evaluating /acer1/d/lassen1/manage/regress/support/flawed1.xml...
Invalid Component subtype: null
VALIDATION ERROR.

IGNORE Evaluating /acer1/d/lassen1/manage/regress/support/flawed2.xml...
JBI Type:binding-component
COMPONENT CLASS LOADER DELEGATION: parent-first
BOOTSTRAP CLASS LOADER DELEGATION: parent-first
ID: null
DESCRIPTION: This is a sample BC.
COMPONENT CLASS: [com.sun.jbi.sample.bindings.binding1.MBeanClass]
COMPONENT CLASSPATH: [com.sun.jbi.sample.bindings.binding1]
BOOTSTRAP CLASS: com.sun.jbi.sample.bindings.binding1.bootstrapClass
BOOTSTRAP CLASSPATH: [com.sun.jbi.sample.bindings.binding1]
SHARED LIBRARY ID:[23007ada-5477-42c6-9437-59a6b344a0cd, f9ff1c0f-9389-47e4-89b7-367877759dd0]

IGNORE Evaluating /acer1/d/lassen1/manage/regress/support/flawed3.xml...
Invalid Component type.
VALIDATION ERROR.

IGNORE Evaluating /acer1/d/lassen1/manage/regress/support/flawed4.xml...
JBI Type:service-engine
COMPONENT CLASS LOADER DELEGATION: parent-first
BOOTSTRAP CLASS LOADER DELEGATION: parent-first
ID: 29ae7208-b07d-45c7-8662-d1389d6b2fe
DESCRIPTION: This is a sample engine.
COMPONENT CLASS: [com.sun.jbi.sample.engines.engine1.MBeanClass]
COMPONENT CLASSPATH: []
BOOTSTRAP CLASS: com.sun.jbi.sample.engines.engine1.bootstrapClass
BOOTSTRAP CLASSPATH: [com.sun.jbi.sample.engines.engine1]
SHARED LIBRARY ID:[23007ada-5477-42c6-9437-59a6b344a0cd, f9ff1c0f-9389-47e4-89b7-367877759dd0]

IGNORE Evaluating /acer1/d/lassen1/manage/regress/support/flawed5.xml...
JBI Type:service-engine
COMPONENT CLASS LOADER DELEGATION: parent-first
BOOTSTRAP CLASS LOADER DELEGATION: parent-first
ID: 29ae7208-b07d-45c7-8662-d1389d6b2fe
DESCRIPTION: This is a sample engine.
COMPONENT CLASS: [com.sun.jbi.sample.engines.engine1.MBeanClass]
COMPONENT CLASSPATH: [com.sun.jbi.sample.engines.engine1]
BOOTSTRAP CLASS: com.sun.jbi.sample.engines.engine1.bootstrapClass
BOOTSTRAP CLASSPATH: []
SHARED LIBRARY ID:[23007ada-5477-42c6-9437-59a6b344a0cd, f9ff1c0f-9389-47e4-89b7-367877759dd0]

IGNORE Evaluating /acer1/d/lassen1/manage/regress/support/sns1.xml...
JBI Type:shared-library
CLASS LOADER DELEGATION: self-first
ID: b3c97e99-bcb2-4ee0-95e4-60e1cf1408aa
DESCRIPTION: This is a sample shared library.
COMPONENT CLASSPATH: [lib/sns1.jar]
