runtime-ui-00153 : Test getting component logger level with component name = null.
IGNORE JBI_HOME is /Users/nikki/dev/jbi/open-esb/install/as8/jbi
IGNORE jmx.provider is service:jmx:rmi:///jndi/rmi://dhcp-usca14-133-146.sfbay.sun.com:8689/management/rmi-jmx-connector
setComponentLoggerLevel failed with exception message : <?xml version="1.0" encoding="UTF-8" standalone="yes"?><jbi-task version="1.0" xmlns="http://java.sun.com/xml/ns/jbi/management-message" xmlns:xsi="http://www.w3.org/2001/XMLSchema-instance" > <jbi-task-result><frmwk-task-result><frmwk-task-result-details><task-result-details><task-id>JBI_UI_COMMON_TASKS</task-id><task-result>FAILED</task-result><message-type>ERROR</message-type><task-status-msg><msg-loc-info><loc-token>UICMN2857 </loc-token><loc-message>Component null is not installed on target server.</loc-message><loc-param>null</loc-param><loc-param>server</loc-param></msg-loc-info></task-status-msg></task-result-details><locale></locale></frmwk-task-result-details><is-cause-framework>YES</is-cause-framework></frmwk-task-result></jbi-task-result></jbi-task>

BUILD SUCCESSFUL
IGNORE Total time: 1 second
Started component sun-http-binding.
JBIFW2016: Logger fred is not registered.
