runtime-ui-00199 : Stop servers/clusters.
Command stop-instance executed successfully.
Command stop-instance executed successfully.
Command delete-instance executed successfully.
Command delete-instance executed successfully.
Command delete-cluster executed successfully.
Stopping node-agent : agent1
Command stop-node-agent executed successfully.
