runtime-ui-00010 : Verifier integration testing.
IGNORE JBI_HOME is /gf/jbi
IGNORE jmx.provider is service:jmx:rmi:///jndi/rmi://annies.red.iplanet.com:8787/management/rmi-jmx-connector

BUILD SUCCESSFUL
IGNORE Total time: 1 second
Starting domain domain1
deleting lifecycle module
creating lifecycle module
Stopping domain domain1
Starting domain domain1
verifying application
IGNORE JBI_HOME is /gf/jbi
IGNORE jmx.provider is service:jmx:rmi:///jndi/rmi://annies.red.iplanet.com:8787/management/rmi-jmx-connector
Service Assembly Information
-----------------------------
Name: SA1
Service Units: 2
Description: Test SA
The following components are not installed: test-component sun-javaee-engine

Endpoint Configuration
-----------------------
Name: http://sun.com/transform-file.wsdl/,transformService,VagueEndpoint
Service Unit: SA1-SU1
Component: test-component
Status: UNKNOWN
Endpoint Configuration
-----------------------
Name: http://sun.com/transform-file.wsdl/,transformService,filetxEP
Service Unit: SA1-SU1
Component: test-component
Status: UNKNOWN
Endpoint Configuration
-----------------------
Name: http://sun.com/transform-file.wsdl/,transformService,AnotherEP
Service Unit: SA1-SU1
Component: test-component
Status: UNKNOWN

JavaEE Verifier Reports
-----------------------
Service Unit Name: SA1-SU2

Ear Filename1=classic.ear
JNDI Class Type1=Oracle eWay
JNDI Name1=env1/Logicalhost1/OraExt1
Message1=An external configuration for Oracle eWay *MAY* be specified
Referrence By1=Codegen.class
Referrence Class1=V35Collab
Status1=NOT VERIFIED
_filename=classic.ear
_jndiname=env1/Logicalhost1/OraExt1
_jndinameClass=Oracle eWay
_message=An external configuration for Oracle eWay *MAY* be specified
_referencer=Codegen.class
_referencerclass=V35Collab
_status=1

Ear Filename1=ordernotifiy.ear
JNDI Class Type1=javax.jms.Queue
JNDI Name1=jms/retailorders
Message1=Reference to JNDI object not found
Referrence By1=OrderCheck.class
Referrence Class1=orders-ejb
Status1=NOT VERIFIED
_filename=ordernotifiy.ear
_jndiname=jms/retailorders
_jndinameClass=javax.jms.Queue
_message=JNDI object not found
_referencer=OrderCheck.class
_referencerclass=orders-ejb
_status=2
Service Assembly Information
-----------------------------
Name: SA1
Service Units: 2
Description: Test SA
The following components are not installed: test-component sun-javaee-engine

Endpoint Configuration
-----------------------
Name: http://sun.com/transform-file.wsdl/,transformService,VagueEndpoint
Service Unit: SA1-SU1
Component: test-component
Status: UNKNOWN
Endpoint Configuration
-----------------------
Name: http://sun.com/transform-file.wsdl/,transformService,filetxEP
Service Unit: SA1-SU1
Component: test-component
Status: UNKNOWN
Endpoint Configuration
-----------------------
Name: http://sun.com/transform-file.wsdl/,transformService,AnotherEP
Service Unit: SA1-SU1
Component: test-component
Status: UNKNOWN

BUILD SUCCESSFUL
IGNORE Total time: 4 seconds
Stopping domain domain1