runtime-ui-00150 : Test Stats on cluster.
Stopping instance : instance1
Command stop-instance executed successfully.
Command create-cluster executed successfully.
Command create-instance executed successfully.
IGNORE Using 38,081 for HTTP_LISTENER_PORT.
IGNORE Using 38,182 for HTTP_SSL_LISTENER_PORT.
IGNORE Using 33,821 for IIOP_SSL_LISTENER_PORT.
IGNORE Using 37,677 for JMS_PROVIDER_PORT.
IGNORE Using 33,701 for IIOP_LISTENER_PORT.
IGNORE Using 38,687 for JMX_SYSTEM_CONNECTOR_PORT.
IGNORE Using 33,921 for IIOP_SSL_MUTUALAUTH_PORT.
Command create-instance executed successfully.
Command start-instance executed successfully.
Command start-instance executed successfully.
