te00004.ksh- DEPLOY transformation engine test
Deploying a service assembly
IGNORE  jmx connection info: (host=localhost, port=14849, username=admin)
IGNORE  file=C:/cygwin/home/kcbabo/build/open-esb/ri-components/transformation-engine/runtime/regress/deploy/xsltdeploysol.zip
Service assembly deployment succeeded. [
SunTransformationEngine_Service_Assembly
]

BUILD SUCCESSFUL
IGNORETotal time: 0 seconds
Doing WSDL Based Deployment.
Deploying a service assembly
IGNORE  jmx connection info: (host=localhost, port=14849, username=admin)
IGNORE  file=C:/cygwin/home/kcbabo/build/open-esb/ri-components/transformation-engine/runtime/regress/deploy/wsdl-xsltdeploysol.zip
Service assembly deployment succeeded. [
9ae51feb-0fc3-4ff6-wsdl-deployment13
]

BUILD SUCCESSFUL
IGNORETotal time: 0 seconds
Doing WSDL 1.1 Based Deployment.
Deploying a service assembly
IGNORE  jmx connection info: (host=localhost, port=14849, username=admin)
IGNORE  file=C:/cygwin/home/kcbabo/build/open-esb/ri-components/transformation-engine/runtime/regress/deploy/wsdl11-xsltdepl.zip
Service assembly deployment succeeded. [
9ae51feb-0fc3-4ff6-wsdl11-deployment
]

BUILD SUCCESSFUL
IGNORETotal time: 0 seconds
Doing CSV Deployment over TE.
Deploying a service assembly
IGNORE  jmx connection info: (host=localhost, port=14849, username=admin)
IGNORE  file=C:/cygwin/home/kcbabo/build/open-esb/ri-components/transformation-engine/runtime/regress/deploy/csvdeploysol.zip
Service assembly deployment succeeded. [
SunTransformationEngine_CSV_Assembly
]

BUILD SUCCESSFUL
IGNORETotal time: 0 seconds
Completed deploying to xslt engine
Starting a service assembly
IGNORE  jmx connection info: (host=localhost, port=14849, username=admin)
  name=SunTransformationEngine_Service_Assembly
Start service assembly succeeded. [
SunTransformationEngine_Service_Assembly
]

BUILD SUCCESSFUL
IGNORETotal time: 0 seconds
Starting a service assembly
IGNORE  jmx connection info: (host=localhost, port=14849, username=admin)
  name=SunTransformationEngine_CSV_Assembly
Start service assembly succeeded. [
SunTransformationEngine_CSV_Assembly
]

BUILD SUCCESSFUL
IGNORE Total time: 0 seconds
Starting DataFeederEngine
Starting a component
IGNORE   jmx connection info: (host=localhost, port=14849, username=admin)
  name=DataFeederEngine
Start component succeeded. [
DataFeederEngine
]

BUILD SUCCESSFUL
IGNORE Total time: 0 seconds
Stopping a service assembly
IGNORE   jmx connection info: (host=localhost, port=14849, username=admin)
  name=SunTransformationEngine_Service_Assembly
Stop service assembly succeeded. [
SunTransformationEngine_Service_Assembly
]

BUILD SUCCESSFUL
IGNORE Total time: 0 seconds
Shutting down a service assembly
IGNORE   jmx connection info: (host=localhost, port=14849, username=admin)
  name=SunTransformationEngine_Service_Assembly
Shutdown service assembly succeeded. [
SunTransformationEngine_Service_Assembly
]

BUILD SUCCESSFUL
IGNORE Total time: 0 seconds
Stopping a service assembly
IGNORE   jmx connection info: (host=localhost, port=14849, username=admin)
  name=SunTransformationEngine_CSV_Assembly
Stop service assembly succeeded. [
SunTransformationEngine_CSV_Assembly
]

BUILD SUCCESSFUL
IGNORE Total time: 0 seconds
Shutting down a service assembly
IGNORE   jmx connection info: (host=localhost, port=14849, username=admin)
  name=SunTransformationEngine_CSV_Assembly
Shutdown service assembly succeeded. [
SunTransformationEngine_CSV_Assembly
]

BUILD SUCCESSFUL
IGNORE Total time: 0 seconds
Stopping a component
IGNORE   jmx connection info: (host=localhost, port=14849, username=admin)
  name=DataFeederEngine
Stop component succeeded. [
DataFeederEngine
]

BUILD SUCCESSFUL
IGNORE Total time: 0 seconds
Shutting down a component
IGNORE   jmx connection info: (host=localhost, port=14849, username=admin)
  name=DataFeederEngine
Shutdown component succeeded. [
DataFeederEngine
]

BUILD SUCCESSFUL
IGNORE Total time: 0 seconds
Uninstalling a component
IGNORE   jmx connection info: (host=localhost, port=14849, username=admin)
  name=DataFeederEngine
Uninstall component succeeded. [
DataFeederEngine
]

BUILD SUCCESSFUL
IGNORE Total time: 0 seconds
