Starting framework for tests
IGNORE added manifest
IGNORE adding: CSVFeederEngineBootstrap.class(in = 971) (out= 468)(deflated 51%)
IGNORE adding: CSVFeederEngineLifeCycle.class(in = 8733) (out= 3604)(deflated 58%)
IGNORE adding: CSVFeederEngineLifeCycle$Receiver.class(in = 2097) (out= 993)(deflated 52%)
IGNORE adding: Payload.class(in = 1791) (out= 915)(deflated 48%)
IGNORE adding: csvinput.txt(in = 68) (out= 57)(deflated 16%)
IGNORE adding: placeholder.txt(in = 0) (out= 0)(stored 0%)
IGNORE adding: te_input.xml(in = 2874) (out= 523)(deflated 81%)
IGNORE adding: META-INF/jbi.xml(in = 870) (out= 358)(deflated 58%)
Installing a component
IGNORE   jmx connection info: (host=localhost, port=31387, username=admin)
IGNORE   file=/space/nilesh/lassen/engine/xslt/bld/regress/feed.jar
Install component succeeded. [
DataFeederEngine
]

BUILD SUCCESSFUL
IGNORE Total time: 3 seconds
Started the Test framework
