testing classloader chain for engines
Building ClassLoaderChainTestEngine.jar
Done Building the Components

BUILD SUCCESSFUL
IGNORE Total time: 0 seconds
Installing a component
IGNORE  jmx connection info: (host=localhost, port=4849, username=admin, target=server )
IGNORE  file=C:/d/main2/open-esb/runtime/framework/bld/test-classes/dist/ClassLoaderChainTestEngine.jar
Install component succeeded. [
ClassLoaderChainTestEngine
]

BUILD SUCCESSFUL
IGNORE Total time: 0 seconds
Starting a component
IGNORE  jmx connection info: (host=localhost, port=4849, username=admin, target=server )
  name=ClassLoaderChainTestEngine
Start component succeeded. [
ClassLoaderChainTestEngine
]

BUILD SUCCESSFUL
IGNORE Total time: 0 seconds
Shutting down a component
IGNORE  jmx connection info: (host=localhost, port=4849, username=admin, target=server )
  name=ClassLoaderChainTestEngine
Shutdown component succeeded. [
ClassLoaderChainTestEngine
]

BUILD SUCCESSFUL
IGNORE Total time: 0 seconds
Uninstalling a component
IGNORE  jmx connection info: (host=localhost, port=4849, username=admin, target=server )
  name=ClassLoaderChainTestEngine
Uninstall component succeeded. [
ClassLoaderChainTestEngine
]

BUILD SUCCESSFUL
IGNORE Total time: 0 seconds
Engines Classloader Chain
      1 
      1 
      1 
